{
  "user_intention": "Live Test",
  "language": "golang",
  "prompt": "func isLeapYear(year int) bool {",
  "anthropic": {
    "result": "func isLeapYear(year int) bool {\n    if year%4 == 0 {\n        if year%100 == 0 {\n            if year%400 == 0 {\n                return true\n            } else {\n                return false\n            }\n        } else {\n            return true\n        }\n    } else {\n        return false\n    }\n}",
    "duration": 2.3129580059903674,
    "result_length": 296
  },
  "anthropic_fast": {
    "result": "func isLeapYear(year int) bool {\n   return year%400 == 0 || (year%4 == 0 && year%100 != 0)\n}",
    "duration": 0.8770011080196127,
    "result_length": 92,
    "avg_duration": 0.7733669581939466
  },
  "vertex_combined": {
    "result": "func isLeapYear(year int) bool {\n  // Check if the year is divisible by 4.\n  if year % 4 == 0 {\n    // Check if the year is divisible by 100.\n    if year % 100 == 0 {\n      // Check if the year is divisible by 400.\n      if year % 400 == 0 {\n        return true\n      } else {\n        return false\n      }\n    } else {\n      return true\n    }\n  } else {\n    return false\n  }\n}",
    "duration": 3.5261390029918402,
    "result_length": 376,
    "avg_duration": 2.906629214104032
  },
  "vertex_code_bison": {
    "result": "func isLeapYear(year int) bool {\n    if year % 4 == 0 {\n        if year % 100 == 0 {\n            return year % 400 == 0\n        } else {\n            return true\n        }\n    } else {\n        return false\n    }\n}",
    "duration": 2.826291835983284,
    "result_length": 212,
    "avg_duration": 2.9659689577005337
  },
  "vertex_text_bison": {
    "result": "if year % 4 == 0 {\n         if year % 100 == 0 {\n             if year % 400 == 0 {\n                 return true\n             }\n         } else {\n             return true\n         }\n     }\n     return false\n }",
    "duration": 0.8644927109708078,
    "result_length": 208,
    "avg_duration": 0.7800092315883376
  },
  "vertex_gecko": {
    "result": ""
  },
  "gitlab_model": {
    "result": "\n  return year%4 == 0 && (year%100 != 0 || year%400 == 0)\n}",
    "duration": 0.6289272970170714,
    "result_length": 59,
    "avg_duration": 0.6595189045008738
  }
}