{
  "user_intention": "Live Test",
  "language": "golang",
  "prompt": "func largestElement(nums []int) int {",
  "anthropic": {
    "result": "func largestElement(nums []int) int {\n    largest := 0\n    for _, num := range nums {\n        if num > largest {\n            largest = num\n        }\n    }\n    return largest\n}",
    "duration": 1.4430282169487327,
    "result_length": 175,
    "avg_duration": 1.8343650358903687
  },
  "anthropic_fast": {
    "result": "func largestElement(nums []int) int {\n       max := nums[0]\n       for _, num := range nums {\n              if num > max {\n                     max = num\n              }\n       }\n       return max\n}",
    "duration": 0.7974370109732263,
    "result_length": 198,
    "avg_duration": 0.8513702014868614
  },
  "vertex_combined": {
    "result": "def largestElement(nums):\n  \"\"\"\n  This function takes an array of integers as input and returns the largest element in the array.\n\n  Args:\n    nums: An array of integers.\n\n  Returns:\n    The largest element in the array.\n  \"\"\"\n\n  # Initialize the largest element to the first element in the array.\n  largest_element = nums[0]\n\n  # Iterate through the array, keeping track of the largest element that has been seen so far.\n  for i in range(1, len(nums)):\n    if nums[i] > largest_element:\n      largest_element = nums[i]\n\n  # Return the largest element.",
    "duration": 3.764466622029431,
    "result_length": 552,
    "avg_duration": 3.8216281868168154
  },
  "vertex_code_bison": {
    "result": "def largestElement(nums):\n  \"\"\"\n  This function takes an array of integers as input and returns the largest element in the array.\n\n  Args:\n    nums: An array of integers.\n\n  Returns:\n    The largest element in the array.\n  \"\"\"\n\n  # Initialize the largest element to the first element in the array.\n  largest_element = nums[0]\n\n  # Iterate through the array, keeping track of the largest element that has been seen so far.\n  for i in range(1, len(nums)):\n    if nums[i] > largest_element:\n      largest_element = nums[i]\n\n  # Return the largest element.",
    "duration": 3.820271146018058,
    "result_length": 552,
    "avg_duration": 3.8503345351084137
  },
  "vertex_text_bison": {
    "result": "max := nums[0]\n     for _, v := range nums {\n         if v > max {\n             max = v\n         }\n     }\n     return max\n }",
    "duration": 0.7778783320100047,
    "result_length": 124,
    "avg_duration": 0.7411435209854972
  },
  "vertex_gecko": {
    "result": ""
  },
  "gitlab_model": {
    "result": "\n\tmax := nums[0]\n\tfor _, num := range nums {\n\t\tif num > max {\n\t",
    "duration": 0.6661115029710345,
    "result_length": 63,
    "avg_duration": 0.7016848139988724
  }
}