{
  "user_intention": "Live Test",
  "language": "golang",
  "prompt": "// Write a function to reverse a string.",
  "anthropic": {
    "result": "func Reverse(s string) string { \n    r := []rune(s)\n    for i, j := 0, len(r)-1; i < j; i, j = i+1, j-1 {\n        r[i], r[j] = r[j], r[i]\n    }\n    return string(r)\n}",
    "duration": 3.5415360369952396,
    "result_length": 166,
    "avg_duration": 2.745400451804744
  },
  "anthropic_fast": {
    "result": "// Write a function to reverse a string.\nfunc reverse(s string) string {\n    runes := []rune(s)\n    for i, j := 0, len(runes)-1; i < j; i, j = i+1, j-1 {\n        runes[i], runes[j] = runes[j], runes[i]\n    }\n    return string(runes)\n}",
    "duration": 1.20398331299657,
    "result_length": 234,
    "avg_duration": 1.4466382479004096
  },
  "vertex_combined": {
    "result": "def reverse_string(string):\n  \"\"\"Reverses a string.\n\n  Args:\n    string: The string to reverse.\n\n  Returns:\n    The reversed string.\n  \"\"\"\n  new_string = \"\"\n  for character in string[::-1]:\n    new_string = character + new_string\n  return new_string\n",
    "duration": 3.4238724149763584,
    "result_length": 250,
    "avg_duration": 3.4898245082003996
  },
  "vertex_code_bison": {
    "result": "def reverse_string(string):\n  \"\"\"Reverses a string.\n\n  Args:\n    string: The string to reverse.\n\n  Returns:\n    The reversed string.\n  \"\"\"\n  new_string = \"\"\n  for character in string[::-1]:\n    new_string = character + new_string\n  return new_string\n",
    "duration": 3.273143630998675,
    "result_length": 250,
    "avg_duration": 3.4850884402985685
  },
  "vertex_text_bison": {
    "result": "func reverse(s string) string {\n        var rev string\n        for i := len(s) - 1; i >= 0; i-- {\n            rev += string(s[i])\n        }\n        return rev\n    }",
    "duration": 0.7307965570362285,
    "result_length": 164,
    "avg_duration": 0.7329350385058205
  },
  "vertex_gecko": {
    "result": ""
  },
  "gitlab_model": {
    "result": "```go\nfunc reverseString(s string) string {\n  r := []rune(s)\n  for i, j := 0, len",
    "duration": 0.5628852130030282,
    "result_length": 81,
    "avg_duration": 0.6778211696946528
  }
}