{
  "user_intention": "Live Test",
  "language": "golang",
  "prompt": "// Create a dictionary that maps book titles to their authors.",
  "anthropic": {
    "result": "// Create a dictionary that maps book titles to their authors.\nbookAuthors := map[string]string{\n    \"The Alchemist\": \"Paulo Coelho\",\n    \"Harry Potter\": \"J.K. Rowling\",\n    \"The Handmaid's Tale\": \"Margaret Atwood\",\n}",
    "duration": 2.38031591597246,
    "result_length": 217,
    "avg_duration": 2.3215177071047948
  },
  "anthropic_fast": {
    "result": "var books map[string]string\nbooks = make(map[string]string)\nbooks[\"The Hobbit\"] = \"J.R.R. Tolkien\"  \nbooks[\"The Lord of the Rings\"] = \"J.R.R. Tolkien\"\nbooks[\"The Great Gatsby\"] = \"F. Scott Fitzgerald\"",
    "duration": 0.9661337119759992,
    "result_length": 200,
    "avg_duration": 0.9688069300958887
  },
  "vertex_combined": {
    "result": "book_titles_to_authors = {\n    \"The Hitchhiker's Guide to the Galaxy\": \"Douglas Adams\",\n    \"The Lord of the Rings\": \"J.R.R. Tolkien\",\n    \"Harry Potter and the Sorcerer's Stone\": \"J.K. Rowling\",\n    \"The Catcher in the Rye\": \"J.D. Salinger\",\n    \"To Kill a Mockingbird\": \"Harper Lee\",\n}",
    "duration": 2.9270198769518174,
    "result_length": 287,
    "avg_duration": 2.9047052446985617
  },
  "vertex_code_bison": {
    "result": "book_titles_to_authors = {\n    \"The Hitchhiker's Guide to the Galaxy\": \"Douglas Adams\",\n    \"The Lord of the Rings\": \"J.R.R. Tolkien\",\n    \"Harry Potter and the Sorcerer's Stone\": \"J.K. Rowling\",\n    \"The Catcher in the Rye\": \"J.D. Salinger\",\n    \"To Kill a Mockingbird\": \"Harper Lee\",\n}",
    "duration": 3.138569060014561,
    "result_length": 287,
    "avg_duration": 2.9449667280947325
  },
  "vertex_text_bison": {
    "result": "var books = map[string]string{\n        \"The Great Gatsby\": \"F. Scott Fitzgerald\",\n        \"To Kill a Mockingbird\": \"Harper Lee\",\n        \"1984\": \"George Orwell\",\n    }",
    "duration": 0.6654877659748308,
    "result_length": 167,
    "avg_duration": 0.702524058992276
  },
  "vertex_gecko": {
    "result": ""
  },
  "gitlab_model": {
    "result": "```\nbooks := map[string]string{\n    \"The Great Gatsby\": \"F. Scott Fitzgerald\",\n    \"One Hundred Years of Solitude",
    "duration": 0.6451490460312925,
    "result_length": 113,
    "avg_duration": 0.6228739800921176
  }
}