{
  "user_intention": "Live Test",
  "language": "golang",
  "prompt": "// Write a program to sort a list of numbers in ascending order.",
  "anthropic": {
    "result": "package main\n\nimport \"sort\"\n\nfunc main() {\n    nums := []int{5, 3, 1, 4, 2}\n    sort.Ints(nums)\n    println(nums)\n}",
    "duration": 1.736437090963591,
    "result_length": 115,
    "avg_duration": 2.575867260398809
  },
  "anthropic_fast": {
    "result": "package main\n\nimport \"sort\"\n\nfunc main() {\n    numbers := []int{4,3,2,1}\n    \n    sort.Ints(numbers)\n    \n    for _, number := range numbers {\n        println(number)\n    }\n}",
    "duration": 1.0951377039891668,
    "result_length": 174,
    "avg_duration": 1.1057904467976187
  },
  "vertex_combined": {
    "result": "# Create a list of numbers.\nnumbers = [10, 5, 2, 7, 3]\n\n# Sort the list in ascending order.\nnumbers.sort()\n\n# Print the sorted list.\nprint(numbers)",
    "duration": 2.5797922490164638,
    "result_length": 147,
    "avg_duration": 2.6036672481917775
  },
  "vertex_code_bison": {
    "result": "# Create a list of numbers.\nnumbers = [10, 5, 2, 7, 3]\n\n# Sort the list in ascending order.\nnumbers.sort()\n\n# Print the sorted list.\nprint(numbers)",
    "duration": 2.6069929340155795,
    "result_length": 147,
    "avg_duration": 2.6274435753002763
  },
  "vertex_text_bison": {
    "result": "```\npackage main\n\nimport (\n    \"fmt\"\n    \"sort\"\n)\n\nfunc main() {\n    // Create a list of numbers.\n    numbers := []int{5, 3, 1, 2, 4}\n\n    // Sort the list in ascending order.\n    sort.Ints(numbers)\n\n    // Print the sorted list.\n    fmt.Println(numbers)\n}\n```",
    "duration": 1.081481133995112,
    "result_length": 260,
    "avg_duration": 1.055139365902869
  },
  "vertex_gecko": {
    "result": ""
  },
  "gitlab_model": {
    "result": "```go\npackage main\n\nimport (\n    \"fmt\"\n    \"sort\"\n)\n\nfunc main() {\n    // Create a",
    "duration": 0.6300792489782907,
    "result_length": 82,
    "avg_duration": 0.927758642891422
  }
}