{
  "user_intention": "Live Test",
  "language": "golang",
  "prompt": "// Write a program to calculate the sum of all numbers in a given list.",
  "anthropic": {
    "result": "func sum(numbers []int) int {\n    sum := 0\n    for _, number := range numbers {\n        sum += number\n    }\n    return sum\n}",
    "duration": 1.431949464022182,
    "result_length": 124,
    "avg_duration": 1.564642433397239
  },
  "anthropic_fast": {
    "result": "package main\n\nimport \"fmt\"\n\nfunc main() {\n    var numbers = []int{1, 2, 3}  \n    sum := 0\n    for _, number := range numbers {\n        sum += number\n    }\n    fmt.Println(sum) \n}",
    "duration": 1.0597930799704045,
    "result_length": 178,
    "avg_duration": 1.0930520805995911
  },
  "vertex_combined": {
    "result": "# Initialize a variable to store the sum.\nsum = 0\n\n# Iterate over the list, adding each number to the sum.\nfor number in list:\n    sum += number\n\n# Print the sum.\nprint(sum)",
    "duration": 3.0828481229837053,
    "result_length": 173,
    "avg_duration": 3.0876306878810285
  },
  "vertex_code_bison": {
    "result": "# Initialize a variable to store the sum.\nsum = 0\n\n# Iterate over the list, adding each number to the sum.\nfor number in list:\n    sum += number\n\n# Print the sum.\nprint(sum)",
    "duration": 3.095540759037249,
    "result_length": 173,
    "avg_duration": 3.015572251792764
  },
  "vertex_text_bison": {
    "result": "package main\n\n    import (\n        \"fmt\"\n    )\n\n    func main() {\n        var numbers = []int{1, 2, 3, 4, 5}\n        var sum int\n        for _, number := range numbers {\n            sum += number\n        }\n        fmt.Println(sum)\n    }",
    "duration": 1.130591178953182,
    "result_length": 236,
    "avg_duration": 0.9921138199977577
  },
  "vertex_gecko": {
    "result": ""
  },
  "gitlab_model": {
    "result": "```go\npackage main\n\nimport \"fmt\"\n\nfunc main() {\n  // Create a list of numbers.\n  numbers := []int",
    "duration": 0.9103752869996242,
    "result_length": 97,
    "avg_duration": 0.6718178907933179
  }
}