{
  "anthropic": {
    "result": "// int is_valid_email(char* email) {\n    int at_pos = -1;\n    int dot_pos = -1;\n    int i;\n    for (i = 0; email[i] != '\\0'; i++) {\n        if (email[i] == '@') {\n            at_pos = i;\n        } else if (email[i] == '.') {\n            dot_pos = i;\n        }\n    }\n    if (at_pos == -1 || dot_pos == -1 || at_pos > dot_pos) {\n        return 0;",
    "duration": 3.0165053959935904,
    "result_length": 344,
    "average_duration": 3.166404363210313,
    "raw_durations": [
      3.0165053959935904,
      3.3382988380035385,
      3.17137879494112,
      2.770516365999356,
      3.896520934998989,
      3.13820669404231,
      3.144775447086431,
      3.109544192091562,
      2.899661949952133,
      3.1786350189941004
    ],
    "uuid": "43fdab2f-751e-4416-97ad-edb5d78384f7"
  },
  "anthropic_fast": {
    "result": "int is_valid_email(char* email) {\n    int at_count = 0;\n    int dot_count = 0;\n    for (int i = 0; email[i] != '\\0'; i++) {\n        if (email[i] == '@') {\n            at_count++;   \n        }\n        if (email[i] == '.') {\n            dot_count++;   \n        }\n    }\n    return at_count == 1 && dot_count > 0;\n}",
    "duration": 1.3161669219844043,
    "result_length": 311,
    "average_duration": 0.9564105322235263,
    "raw_durations": [
      1.3161669219844043,
      0.5287540099816397,
      1.2479812279343605,
      0.5328937420854345,
      1.3280277950689197,
      0.6005767260212451,
      0.5526893420610577,
      0.49386496003717184,
      0.4925775040173903,
      2.4705730930436403
    ],
    "uuid": "6358f108-f6bd-4d4d-b3b3-72901d84014c"
  },
  "vertex_combined": {
    "result": "// int is_valid_email(char* email) {\n//   if (email == NULL) {\n//     return 0;\n//   }\n//   // Check if the email address has the '@' symbol.\n//   if (strchr(email, '@') == NULL) {\n//     return 0;\n//   }\n//   // Check if the email address has the '.' symbol.\n//   if (strchr(email, '.') == NULL) {\n//     return 0;\n//   }\n//   // Check if the email address is too long.\n//   if (strlen(email) > 255) {\n//     return 0;\n//   }\n//   // Check if the email address is too short.\n//   if (strlen(email) < 3) {\n//     return 0;\n//   }\n//   // The email address is valid.\n//   return 1;\n// }",
    "duration": 3.9242672509280965,
    "result_length": 585,
    "average_duration": 3.864820235397201,
    "raw_durations": [
      3.9242672509280965,
      3.827105704927817,
      3.8811491719679907,
      3.9236788250273094,
      3.8740293990122154,
      3.77681636903435,
      3.846415619016625,
      3.9166504530003294,
      3.842823793995194,
      3.835265767062083
    ],
    "uuid": "2598a35f-2e5a-443c-8f4f-c4185828c2b5"
  },
  "vertex_code_bison": {
    "result": "// int is_valid_email(char* email) {\n//   if (email == NULL) {\n//     return 0;\n//   }\n//   // Check if the email address has the '@' symbol.\n//   if (strchr(email, '@') == NULL) {\n//     return 0;\n//   }\n//   // Check if the email address has the '.' symbol.\n//   if (strchr(email, '.') == NULL) {\n//     return 0;\n//   }\n//   // Check if the email address is too long.\n//   if (strlen(email) > 255) {\n//     return 0;\n//   }\n//   // Check if the email address is too short.\n//   if (strlen(email) < 3) {\n//     return 0;\n//   }\n//   // The email address is valid.\n//   return 1;\n// }",
    "duration": 3.8671911399578676,
    "result_length": 585,
    "average_duration": 3.8783070375910027,
    "raw_durations": [
      3.8671911399578676,
      3.9098253230331466,
      3.9155861519975588,
      3.872400955995545,
      3.8258834009757265,
      3.915335173951462,
      3.8356419099727646,
      3.833978804992512,
      3.9090137829771265,
      3.8982137320563197
    ],
    "uuid": "b509fcf9-6fce-4fae-8343-8541d33aac53"
  },
  "vertex_text_bison": {
    "result": "```\n    int is_valid_email(char* email) {\n        int i, j, k;\n        for (i = 0; email[i] != '\\0'; i++) {\n            if (email[i] == '@') {\n                for (j = i + 1; email[j] != '\\0'; j++) {\n                    if (email[j] == '.') {\n                        for (k = j + 1; email[k] != '\\0'; k++) {\n                            if (email[k] != ' ') {\n                                return 1;\n                            }\n                        }\n                    }\n                }\n            }\n        }\n        return 0;\n    }\n    ```",
    "duration": 2.3866391989868134,
    "result_length": 552,
    "average_duration": 2.3374132938915864,
    "raw_durations": [
      2.3866391989868134,
      2.3632770919939503,
      2.277938885963522,
      2.3966861410299316,
      2.3851261489326134,
      2.291287043946795,
      2.2841414930298924,
      2.3889197680400684,
      2.292130692047067,
      2.30798647494521
    ],
    "uuid": "e334b18b-2aae-4018-995d-131317d76e3f"
  },
  "vertex_gecko": {
    "result": "\n//     int i;\n//     for (i = 0; i < strlen(email); i++) {\n//         if (email[i] == '@') {\n//             return 1;",
    "duration": 1.3393360000336543,
    "result_length": 118,
    "average_duration": 1.3552677667932584,
    "raw_durations": [
      1.3393360000336543,
      1.4469711249694228,
      1.2826320419553667,
      1.458959582960233,
      1.2712312090443447,
      1.421599957975559,
      1.315587708959356,
      1.3300225839484483,
      1.3061357910046354,
      1.3802016670815647
    ],
    "uuid": "dff82696-305f-45be-bb56-e46df9762cbe"
  },
  "user_intention": "Live Test",
  "language": "c",
  "prompt": "int is_valid_email(char* email) {",
  "gitlab_model": {
    "result": "\n    if (email == NULL) {\n        return 0;\n    }\n\n    int at_index = 0;\n",
    "duration": 0.582492973015178,
    "result_length": 73,
    "average_duration": 0.6271929864073172,
    "uuid": "c17042f2-bc87-43da-961b-344f216e8cea"
  }
}