{
  "anthropic": {
    "result": "void sort_numbers_ascending(int numbers[], int count) {\n    int i, j, temp;\n    for (i = 0; i < count; i++) {\n        for (j = i + 1; j < count; j++) {\n            if (numbers[i] > numbers[j]) {\n                temp = numbers[i];\n                numbers[i] = numbers[j];\n                numbers[j] = temp;\n            }\n        }\n    }\n}",
    "duration": 2.768232863978483,
    "result_length": 337,
    "average_duration": 2.5743001749855465,
    "raw_durations": [
      2.768232863978483,
      2.4136121600167826,
      2.7314488099655136,
      3.1917608600342646,
      2.3466825149953365,
      2.3411055859178305,
      2.759954039938748,
      2.6482764329994097,
      2.2698287130333483,
      2.2720997689757496
    ],
    "uuid": "bd422377-4312-443d-8ea7-e01203754b9d"
  },
  "anthropic_fast": {
    "result": "",
    "uuid": "d6fb465a-d58b-458b-9a60-8a6b13754f5e"
  },
  "vertex_combined": {
    "result": "void sort_numbers_ascending(int numbers[], int count) {\n  for (int i = 0; i < count - 1; i++) {\n    for (int j = i + 1; j < count; j++) {\n      if (numbers[i] > numbers[j]) {\n        int temp = numbers[i];\n        numbers[i] = numbers[j];\n        numbers[j] = temp;\n      }\n    }\n  }\n}",
    "duration": 2.502588422037661,
    "result_length": 285,
    "average_duration": 2.539945794106461,
    "raw_durations": [
      2.502588422037661,
      2.5584846739657223,
      2.4454349220031872,
      2.5430065259570256,
      2.581247002002783,
      2.6343086960259825,
      2.501477728015743,
      2.513255874044262,
      2.493615641957149,
      2.6260384550550953
    ],
    "uuid": "9278a1ca-5b27-4f33-a38f-d726802f0003"
  },
  "vertex_code_bison": {
    "result": "void sort_numbers_ascending(int numbers[], int count) {\n  for (int i = 0; i < count - 1; i++) {\n    for (int j = i + 1; j < count; j++) {\n      if (numbers[i] > numbers[j]) {\n        int temp = numbers[i];\n        numbers[i] = numbers[j];\n        numbers[j] = temp;\n      }\n    }\n  }\n}",
    "duration": 2.4763917380478233,
    "result_length": 285,
    "average_duration": 2.5329270638059826,
    "raw_durations": [
      2.4763917380478233,
      2.5343472720123827,
      2.5785896390443668,
      2.5601988970302045,
      2.5349956919671968,
      2.573214508011006,
      2.539860190008767,
      2.502272658981383,
      2.58214712201152,
      2.447252920945175
    ],
    "uuid": "2b379ea5-3014-420a-ba1a-5f290c5965dd"
  },
  "vertex_text_bison": {
    "result": "```c\nvoid sort_numbers_ascending(int numbers[], int count) {\n    for (int i = 0; i < count - 1; i++) {\n        for (int j = i + 1; j < count; j++) {\n            if (numbers[i] > numbers[j]) {\n                int temp = numbers[i];\n                numbers[i] = numbers[j];\n                numbers[j] = temp;\n            }\n        }\n    }\n}\n```",
    "duration": 1.2396025590132922,
    "result_length": 342,
    "average_duration": 1.2224190692068078,
    "raw_durations": [
      1.2396025590132922,
      1.2222838980378583,
      1.2634037679526955,
      1.2418199359672144,
      1.2210659449920058,
      1.234489102032967,
      1.1909657749347389,
      1.199558591004461,
      1.2587003770750016,
      1.152300741057843
    ],
    "uuid": "0dd3e722-df6e-4bbf-8c10-dbabb2f1ce5a"
  },
  "vertex_gecko": {
    "result": "\n//     for (int i = 0; i < count - 1; i++) {\n//         for (int j = i + 1; j < count; j++) {\n//             if (numbers[i] > numbers[j]) {\n//                 int temp =",
    "duration": 1.3948153749806806,
    "result_length": 170,
    "average_duration": 1.3423043582122773,
    "raw_durations": [
      1.3948153749806806,
      1.320858458057046,
      1.3685880830744281,
      1.3026340419892222,
      1.4618272499646991,
      1.2510892080608755,
      1.325113583006896,
      1.1968829999677837,
      1.4328753750305623,
      1.3683592079905793
    ],
    "uuid": "b9715591-50e3-4217-b38b-4815ef40a458"
  },
  "user_intention": "Live Test",
  "language": "c",
  "prompt": "void sort_numbers_ascending(int numbers[], int count) {",
  "gitlab_model": {
    "result": "\n  for (int i = 0; i < count; i++) {\n    for (int j = i + 1; j",
    "duration": 0.5710364609840326,
    "result_length": 62,
    "average_duration": 0.6714633324067109,
    "uuid": "5f867727-72ae-4978-be19-b4325c5eb238"
  }
}