{
  "anthropic": {
    "result": "// int is_prime(int n) {\n    if (n <= 1) return 0;\n    if (n <= 3) return 1;\n\n    for (int i = 2; i < n; i++) {\n        if (n % i == 0)\n            return 0;\n    }\n    return 1; \n}",
    "duration": 2.0575729950796813,
    "result_length": 180,
    "average_duration": 2.427897425519768,
    "raw_durations": [
      2.0575729950796813,
      2.177195908036083,
      2.311852870043367,
      2.6517628240399063,
      2.3880741560133174,
      2.558049617917277,
      2.066909607965499,
      2.3324601310305297,
      3.428704214049503,
      2.3063919310225174
    ],
    "uuid": "ccde885f-6d4a-48e0-b223-89866894f1a8"
  },
  "anthropic_fast": {
    "result": "// int is_prime(int n) { \n   int i;\n   if (n <= 1) {\n      return 0;\n   }\n   for(i = 2; i <= n/2; ++i){\n      if(n % i == 0){\n         return 0;\n      }\n   }\n   return 1;  \n}",
    "duration": 1.022142353001982,
    "result_length": 174,
    "average_duration": 1.3131255330018965,
    "raw_durations": [
      1.022142353001982,
      1.1909739569528028,
      1.038617229089141,
      1.0889401459135115,
      2.503483182983473,
      1.0470824640942737,
      1.3006393989780918
    ],
    "uuid": "9ac3e96a-8d7e-43e0-93f3-3a29a66a1d3c"
  },
  "vertex_combined": {
    "result": "int is_prime(int n) {\n  // Check if n is 1.\n  if (n == 1) {\n    return false;\n  }\n\n  // Check if n is 2.\n  if (n == 2) {\n    return true;\n  }\n\n  // Check if n is divisible by any number from 2 to the square root of n.\n  for (int i = 2; i <= sqrt(n); i++) {\n    if (n % i == 0) {\n      return false;\n    }\n  }\n\n  // If n is not divisible by any number from 2 to the square root of n, then it is prime.\n  return true;\n}",
    "duration": 3.0710451670456678,
    "result_length": 417,
    "average_duration": 3.064564446709119,
    "raw_durations": [
      3.0710451670456678,
      2.937545304070227,
      3.0494324719766155,
      3.1092319539748132,
      3.023919828934595,
      3.0904518810566515,
      2.946817867923528,
      3.5064674590248615,
      2.943004445056431,
      2.9677280880277976
    ],
    "uuid": "a567b915-25ea-4a49-85ce-0dac6d781b0b"
  },
  "vertex_code_bison": {
    "result": "int is_prime(int n) {\n  // Check if n is 1.\n  if (n == 1) {\n    return false;\n  }\n\n  // Check if n is 2.\n  if (n == 2) {\n    return true;\n  }\n\n  // Check if n is divisible by any number from 2 to the square root of n.\n  for (int i = 2; i <= sqrt(n); i++) {\n    if (n % i == 0) {\n      return false;\n    }\n  }\n\n  // If n is not divisible by any number from 2 to the square root of n, then it is prime.\n  return true;\n}",
    "duration": 2.950417216983624,
    "result_length": 417,
    "average_duration": 3.061462835408747,
    "raw_durations": [
      2.950417216983624,
      3.020872834022157,
      2.900019620079547,
      3.5605801759520546,
      3.007811520015821,
      3.0505426090676337,
      3.048270720988512,
      3.0441835549427196,
      3.0239146259846166,
      3.0080154760507867
    ],
    "uuid": "f52939a8-9dfc-4de6-9473-ee0c63cbce51"
  },
  "vertex_text_bison": {
    "result": "```\n#include <stdio.h>\n\nint is_prime(int n) {\n    if (n <= 1)\n        return 0;\n    for (int i = 2; i * i <= n; i++) {\n        if (n % i == 0)\n            return 0;\n    }\n    return 1;\n}\n\nint main() {\n    int n;\n    scanf(\" %d \", &n);\n    if (is_prime(n))\n        printf(\" YES \");\n    else\n        printf(\" NO \");\n    return 0;\n}\n```",
    "duration": 1.717473709024489,
    "result_length": 333,
    "average_duration": 1.6987331695738248,
    "raw_durations": [
      1.717473709024489,
      1.6459557429188862,
      1.6647609209176153,
      1.635622501024045,
      1.7376166209578514,
      1.7143846289254725,
      1.6655903039500117,
      1.7493462580023333,
      1.721435027080588,
      1.735145982936956
    ],
    "uuid": "9e6bca68-1edd-474b-a6c4-6b5ceb0c2e73"
  },
  "vertex_gecko": {
    "result": "\n//     if (n == 1)\n//         return 0;\n//     for (int i = 2; i < n; i++)\n//         if (n % i == 0)",
    "duration": 1.447842666064389,
    "result_length": 102,
    "average_duration": 1.4068612206960096,
    "raw_durations": [
      1.447842666064389,
      1.467755916994065,
      1.2861205419758335,
      1.4632666669785976,
      1.3423009999096394,
      1.4119370409753174,
      1.38270758301951,
      1.2964527920121327,
      1.4783932080026716,
      1.4918347910279408
    ],
    "uuid": "a67f251e-bc4b-4067-bdd5-57217007cfa3"
  },
  "user_intention": "Live Test",
  "language": "c",
  "prompt": "int is_prime(int n) {",
  "gitlab_model": {
    "result": "\n    if (n <= 1)\n        return false;\n    if (n <= 3)\n        return true;",
    "duration": 0.580097921018023,
    "result_length": 75,
    "average_duration": 0.6120546524063684,
    "uuid": "43297d6b-d1f0-42d0-a955-ec2c55151d49"
  }
}