{
  "anthropic": {
    "result": "// Implement a function to calculate the area of a circle given its radius.\nfloat area_of_circle(float radius) {\n    float area;\n    area = 3.14 * radius * radius;\n    return area; \n}",
    "duration": 1.9422213709913194,
    "result_length": 183,
    "average_duration": 1.953333727188874,
    "raw_durations": [
      1.9422213709913194,
      2.0678069960558787,
      1.787623491953127,
      1.724687387002632,
      1.9144682409241796,
      2.0196317359805107,
      1.8091240709181875,
      2.2433701250702143,
      2.100047882995568,
      1.9243559699971229
    ],
    "uuid": "b490cdcb-521e-463e-b04e-c43be213d6b9"
  },
  "anthropic_fast": {
    "result": "#include <stdio.h>\n#define PI 3.14\n\nfloat area(float r){\n   float a;\n   a = PI * r * r;  \n   return a;\n}\n\nint main() {\n   float radius, area_circle;\n  \n   printf(\"Enter the radius of circle: \");\n   scanf(\"%f\", &radius);\n\n   area_circle = area(radius);\n\n   printf(\"Area of circle = %0.2f\", area_circle);\n  \n   return 0;\n}",
    "duration": 1.8199217689689249,
    "result_length": 320,
    "average_duration": 1.9701958528836259,
    "raw_durations": [
      1.8199217689689249,
      1.2277580800000578,
      1.3330574940191582,
      1.9346935189096257,
      1.9055927590234205,
      4.2235574659425765,
      1.5090447739930823,
      1.5528874769806862,
      1.4140859650215134,
      2.781359225977212
    ],
    "uuid": "5681fa0b-babe-4be7-afb3-8d64adb15270"
  },
  "vertex_combined": {
    "result": "def area_of_circle(radius):\n  \"\"\"Calculates the area of a circle given its radius.\n\n  Args:\n    radius: The radius of the circle.\n\n  Returns:\n    The area of the circle.\n  \"\"\"\n\n  # Calculate the area of the circle.\n  area = math.pi * radius ** 2\n\n  # Return the area of the circle.\n  return area",
    "duration": 2.900590382050723,
    "result_length": 295,
    "average_duration": 2.889443860820029,
    "raw_durations": [
      2.900590382050723,
      2.711458562989719,
      2.7549372920766473,
      2.7527433440554887,
      3.320868514943868,
      2.765785612980835,
      2.776777478051372,
      3.3964480119757354,
      2.7017174920765683,
      2.8131119169993326
    ],
    "uuid": "cd96e6a6-fc59-4b64-a97b-2e93711a3ae2"
  },
  "vertex_code_bison": {
    "result": "area = \u03c0 * radius^2",
    "duration": 2.8669040789827704,
    "result_length": 19,
    "average_duration": 3.1920133435749447,
    "raw_durations": [
      2.8669040789827704,
      2.9370159299578518,
      2.8671801429009065,
      2.621256086975336,
      3.834865681012161,
      3.425142280990258,
      2.815823275013827,
      3.851216165930964,
      3.5182531400350854,
      3.182476653950289
    ],
    "uuid": "57a50374-5780-4f26-bf7e-ca47cb4c13bb"
  },
  "vertex_text_bison": {
    "result": "double areaOfCircle(double radius) {\n        return 3.14 * radius * radius;\n    }",
    "duration": 0.7624335839645937,
    "result_length": 81,
    "average_duration": 0.8378488619928248,
    "raw_durations": [
      0.7624335839645937,
      0.8491198100382462,
      0.8663489629980177,
      0.7854121880372986,
      0.8669725180370733,
      0.8686845939373598,
      0.8601687009213492,
      0.8724528449820355,
      0.8713345529977232,
      0.775560864014551
    ],
    "uuid": "3ac07091-ec80-4f42-a6ef-a78214346e9c"
  },
  "vertex_gecko": {
    "result": "#include <iostream>\n#include <cmath>",
    "duration": 1.466187332989648,
    "result_length": 36,
    "average_duration": 1.3751226874999702,
    "raw_durations": [
      1.466187332989648,
      1.3677142499946058,
      1.3592177079990506,
      1.3322071250295267,
      1.223579000099562,
      1.3214250829769298,
      1.5618455419316888,
      1.3834329589735717,
      1.3731408750172704,
      1.362476999987848
    ],
    "uuid": "6d93ff49-fcfa-461f-875e-19bbf7115f7a"
  },
  "user_intention": "Live Test",
  "language": "c",
  "prompt": "// Implement a function to calculate the area of a circle given its radius.",
  "prompt_type": "generation",
  "gitlab_model": {
    "result": "def area_of_circle(radius):\n  \"\"\"Calculates the area of a circle given its radius.\n\n  Args:",
    "duration": 0.6594399659661576,
    "result_length": 91,
    "average_duration": 0.6453829230915289,
    "uuid": "02d9c8ee-c5ef-463f-89c6-70fe06130a59"
  }
}