{
  "anthropic": {
    "result": "// Create a dictionary that maps book titles to their authors.\n#include <stdio.h>\n#include <string.h>\n\nstruct book {\n    char *title;\n    char *author;\n};\n\nstruct book library[100];\nint book_count = 0;\n\nvoid add_book(char *title, char *author) {\n    library[book_count].title = title;\n    library[book_count].author = author;\n    book_count++; \n}\n\nchar *get_author(char *title) {\n    for (int",
    "duration": 3.3612146379891783,
    "result_length": 392,
    "average_duration": 3.433837068127468,
    "raw_durations": [
      3.3612146379891783,
      3.4375744770513847,
      3.3883701600134373,
      3.568098178016953,
      3.1996164440643042,
      3.5779658930841833,
      3.1475832000141963,
      2.9937058170326054,
      4.518303736927919,
      3.1459381370805204
    ],
    "uuid": "0988fdeb-b7cf-4f45-b765-7bbe2e8710f5"
  },
  "anthropic_fast": {
    "result": "#include <stdio.h>\n#include <string.h>\n\nint main() {\n   char book_titles[100][100]; \n   char authors[100][100];\n   int i;\n   \n   for (i = 0; i < 100; i++) {\n       scanf(\"%s %s\", book_titles[i], authors[i]);\n       if (strcmp(book_titles[i], \"END\") == 0) {\n           break;\n       }\n   }\n}",
    "duration": 1.435062517062761,
    "result_length": 290,
    "average_duration": 1.8976565102231688,
    "raw_durations": [
      1.435062517062761,
      1.594931501080282,
      1.7806830110494047,
      2.6494490730110556,
      1.7016110710101202,
      3.289371508988552,
      1.4490377119509503,
      1.8353500040248036,
      1.7454335110960528,
      1.4956351929577067
    ],
    "uuid": "f0ddc9c5-cbf0-44ff-adde-fb26a79f085a"
  },
  "vertex_combined": {
    "result": "book_titles_to_authors = {\n    \"The Hitchhiker's Guide to the Galaxy\": \"Douglas Adams\",\n    \"The Lord of the Rings\": \"J.R.R. Tolkien\",\n    \"Harry Potter and the Sorcerer's Stone\": \"J.K. Rowling\",\n    \"The Catcher in the Rye\": \"J.D. Salinger\",\n    \"To Kill a Mockingbird\": \"Harper Lee\",\n}",
    "duration": 2.998739629983902,
    "result_length": 287,
    "average_duration": 2.9632501253858208,
    "raw_durations": [
      2.998739629983902,
      2.948367157019675,
      3.0443546030437574,
      2.847277273889631,
      2.938516541966237,
      2.932502670097165,
      2.985194609966129,
      2.986077364999801,
      2.9126927119214088,
      3.038778690970503
    ],
    "uuid": "0a6ed501-6218-41f2-845c-27faf330d802"
  },
  "vertex_code_bison": {
    "result": "{\n  \"The Lord of the Rings\": \"J.R.R. Tolkien\",\n  \"Harry Potter\": \"J.K. Rowling\",\n  \"The Hunger Games\": \"Suzanne Collins\",\n  \"Twilight\": \"Stephenie Meyer\",\n  \"The Da Vinci Code\": \"Dan Brown\",\n  \"The Girl with the Dragon Tattoo\": \"Stieg Larsson\",\n  \"Gone Girl\": \"Gillian Flynn\",\n  \"The Martian\": \"Andy Weir\",\n  \"The Girl on the Train\": \"Paula Hawkins\",\n  \"The Woman in the Window\": \"A.J. Finn\"\n}",
    "duration": 2.9698329099919647,
    "result_length": 393,
    "average_duration": 3.0371119627030567,
    "raw_durations": [
      2.9698329099919647,
      3.013073584996164,
      2.91861464001704,
      3.0361587529769167,
      2.9173722899286076,
      2.954231367097236,
      3.056695034960285,
      3.6062401980161667,
      2.968381781014614,
      2.930519068031572
    ],
    "uuid": "588ae8b1-8b80-422a-82d5-fe77f794d363"
  },
  "vertex_text_bison": {
    "result": "dictionary = {\n        \"The Great Gatsby\": \"F. Scott Fitzgerald\",\n        \"One Hundred Years of Solitude\": \"Gabriel Garc\u00eda M\u00e1rquez\",\n        \"To Kill a Mockingbird\": \"Harper Lee\",\n        \"The Catcher in the Rye\": \"J.D. Salinger\",\n        \"Beloved\": \"Toni Morrison\",\n    }",
    "duration": 2.284168933983892,
    "result_length": 272,
    "average_duration": 2.3460703606018796,
    "raw_durations": [
      2.284168933983892,
      2.3604402319760993,
      2.2835652590729296,
      2.378864898928441,
      2.373679458978586,
      2.362931181094609,
      2.3624476479599252,
      2.3540751340333372,
      2.3504102010047063,
      2.3501206589862704
    ],
    "uuid": "820f316c-1744-4002-9786-373c6378a29d"
  },
  "vertex_gecko": {
    "result": "Dictionary<string, string> bookAuthors = new Dictionary<string, string>();\n\n        // Add the books to the dictionary.\n        bookAuthors.Add(\"The Hobbit\", \"J.R.R. Tolkein\");",
    "duration": 1.3420368750812486,
    "result_length": 176,
    "average_duration": 1.3687652042135596,
    "raw_durations": [
      1.3420368750812486,
      1.3157567500602454,
      1.4406376250553876,
      1.4837962080491707,
      1.3516250839456916,
      1.3492444169241935,
      1.2897856250638142,
      1.4373083749087527,
      1.351510375039652,
      1.32595070800744
    ],
    "uuid": "619165cc-750d-486f-b102-3d5616add885"
  },
  "user_intention": "Live Test",
  "language": "c",
  "prompt": "// Create a dictionary that maps book titles to their authors.",
  "prompt_type": "generation",
  "gitlab_model": {
    "result": "book_to_author = {\n    \"The Great Gatsby\": \"F. Scott Fitzgerald\",\n    \"One Hundred Years of Solitude",
    "duration": 0.6154432970215566,
    "result_length": 100,
    "average_duration": 0.6209367007017136,
    "uuid": "ec4bb7c9-697c-4985-b722-2375465a85c8"
  }
}