{
  "anthropic": {
    "result": "# class BankAccount:\nclass BankAccount:\n    def __init__(self, owner, balance):\n        self.owner = owner\n        self.balance = balance\n\n    def deposit(self, amount):\n        self.balance += amount\n\n    def withdraw(self, amount):\n        self.balance -= amount\n\n    def __str__(self):\n        return f\"Owner: {self.owner} \\nBalance: {self.balance}\"",
    "duration": 2.745726532069966,
    "result_length": 352,
    "average_duration": 2.745726532069966,
    "raw_durations": [
      2.745726532069966
    ],
    "uuid": "75e4946b-aae1-4a9c-97a5-be9d025bddd1"
  },
  "anthropic_fast": {
    "result": "# class BankAccount:  \n   def __init__(self,balance=0):\n       self.balance = balance\n   def deposit(self,amount):\n       self.balance += amount\n       return self.balance\n   def withdraw(self,amount):\n       if amount > self.balance:\n           print(\"Insufficient funds\")\n           return False\n       self.balance -= amount\n       return True",
    "duration": 1.1444405301008373,
    "result_length": 346,
    "average_duration": 1.1431183852488176,
    "raw_durations": [
      1.1444405301008373,
      1.1124150101095438,
      1.1619970119791105,
      1.0594059079885483,
      1.0973100600531325,
      1.1696684249909595,
      1.2672828150680289,
      1.129301279084757,
      1.143651524093002,
      1.1457112890202552
    ],
    "uuid": "c54c8146-38b4-4969-91b3-b94155b7ab38"
  },
  "vertex_combined": {
    "result": "class BankAccount:\n\n    def __init__(self, account_number, balance):\n        self.account_number = account_number\n        self.balance = balance\n\n    def deposit(self, amount):\n        self.balance += amount\n\n    def withdraw(self, amount):\n        if self.balance >= amount:\n            self.balance -= amount\n        else:\n            raise ValueError(\"Insufficient funds\")\n\n    def get_balance(self):\n        return self.balance",
    "duration": 3.8468554370338097,
    "result_length": 431,
    "average_duration": 3.6311527991085315,
    "raw_durations": [
      3.8468554370338097,
      3.3852282779989764,
      3.7461506159743294,
      3.744555391022004,
      3.566304691019468,
      3.5686336379731074,
      3.54433725704439,
      3.5363726150244474,
      3.4780962279764935,
      3.8949938400182873
    ],
    "uuid": "ea9677e0-3aaa-49d4-8319-310324b74f3d"
  },
  "vertex_code_bison": {
    "result": "class BankAccount:\n\n    def __init__(self, account_number, balance):\n        self.account_number = account_number\n        self.balance = balance\n\n    def deposit(self, amount):\n        self.balance += amount\n\n    def withdraw(self, amount):\n        if amount <= self.balance:\n            self.balance -= amount\n        else:\n            raise ValueError(\"Insufficient funds\")\n\n    def get_balance(self):\n        return self.balance",
    "duration": 3.487789031933062,
    "result_length": 431,
    "average_duration": 3.539023303601425,
    "raw_durations": [
      3.487789031933062,
      3.923626848962158,
      3.486063232063316,
      3.3699734720867127,
      3.5581221969332546,
      3.3678536659572273,
      3.4437956330366433,
      3.774642760050483,
      3.5108530699508265,
      3.4675131250405684
    ],
    "uuid": "44b49770-1081-48b4-b24c-b5cd65ee2744"
  },
  "vertex_text_bison": {
    "result": "class BankAccount:\n\n    def __init__(self, name, balance):\n        self.name = name\n        self.balance = balance\n\n    def deposit(self, amount):\n        self.balance += amount\n\n    def withdraw(self, amount):\n        if amount > self.balance:\n            raise ValueError(\"Insufficient funds\")\n        self.balance -= amount\n\n    def get_balance(self):\n        return self.balance\n\n    def __str__(self):\n        return f\"Account name: {self.name}, balance: {self.balance}\"\n\n```",
    "duration": 1.2654788729269058,
    "result_length": 480,
    "average_duration": 1.2622804398066365,
    "raw_durations": [
      1.2654788729269058,
      1.273372910101898,
      1.2802213409449905,
      1.2240573220187798,
      1.2728974249912426,
      1.2289858260191977,
      1.256885463022627,
      1.244212175020948,
      1.2121773780090734,
      1.3645156850107014
    ],
    "uuid": "d0784432-e2f3-41e2-8a45-c4f8d96798b2"
  },
  "vertex_gecko": {
    "result": "#     def __init__(self, name, balance):\n#         self.name = name\n#         self.balance = balance\n#",
    "duration": 1.4522870410000905,
    "result_length": 102,
    "average_duration": 1.372353795717936,
    "raw_durations": [
      1.4522870410000905,
      1.2947863329900429,
      1.3797882499638945,
      1.4917506669880822,
      1.3800988750299439,
      1.3372289580293,
      1.2557285830844194,
      1.4568082500481978,
      1.3860632500145584,
      1.2889977500308305
    ],
    "uuid": "dfd567a1-4cd2-4236-a692-8ff6faceead6"
  },
  "user_intention": "Live Test",
  "language": "python",
  "prompt": "class BankAccount:",
  "prompt_type": "completion",
  "gitlab_model": {
    "result": "def __init__(self, balance):\n        self.balance = balance\n\n    def deposit(self, amount):\n        self.",
    "duration": 0.6314089170191437,
    "result_length": 105,
    "average_duration": 0.6229839293053374,
    "uuid": "536f1fdc-9369-466f-9e0b-2f1f86327b0f"
  }
}