{
  "anthropic": {
    "result": "def calculate_average(numbers):\n    sum = 0\n    for num in numbers:\n        sum += num\n    return sum / len(numbers)",
    "duration": 2.029395298101008,
    "result_length": 116,
    "average_duration": 1.53929161245469,
    "raw_durations": [
      2.029395298101008,
      1.6175049330340698,
      1.4021001890068874,
      1.241945278015919,
      1.629634339013137,
      1.356524603907019,
      1.5527876999694854,
      1.40983015706297,
      1.6139020139817148
    ],
    "uuid": "80b4cc3b-5f92-496b-8b07-533c36a514d7"
  },
  "anthropic_fast": {
    "result": "def calculate_average(numbers):\n    return sum(numbers) / len(numbers)",
    "duration": 0.5804470999864861,
    "result_length": 70,
    "average_duration": 1.0057296551880426,
    "raw_durations": [
      0.5804470999864861,
      0.6714018790517002,
      0.7709514599991962,
      2.7184451710199937,
      1.3374208660097793,
      0.6281359900021926,
      1.034092876012437,
      0.7795082388911396,
      0.7743356139399111,
      0.7625573569675907
    ],
    "uuid": "b657f5fb-6f67-4408-a50d-104cbda2a8c7"
  },
  "vertex_combined": {
    "result": "def calculate_average(numbers):\n  \"\"\"Calculates the average of a list of numbers.\n\n  Args:\n    numbers: A list of numbers.\n\n  Returns:\n    The average of the numbers in the list.\n  \"\"\"\n\n  if not numbers:\n    raise ValueError(\"The list of numbers cannot be empty.\")\n\n  sum_of_numbers = 0\n  for number in numbers:\n    sum_of_numbers += number\n\n  return sum_of_numbers / len(numbers)",
    "duration": 2.3851994479773566,
    "result_length": 380,
    "average_duration": 2.40022978639463,
    "raw_durations": [
      2.3851994479773566,
      2.351188915898092,
      2.3506760930176824,
      2.8967143250629306,
      2.364676753990352,
      2.2818519360153005,
      2.362488661077805,
      2.428052974981256,
      2.339373540948145,
      2.242075214977376
    ],
    "uuid": "bb2f31bd-5958-4bf3-b3dc-a4669c5fa357"
  },
  "vertex_code_bison": {
    "result": "def calculate_average(numbers):\n  \"\"\"Calculates the average of a list of numbers.\n\n  Args:\n    numbers: A list of numbers.\n\n  Returns:\n    The average of the numbers in the list.\n  \"\"\"\n\n  if not numbers:\n    raise ValueError(\"The list of numbers cannot be empty.\")\n\n  total = 0\n  for number in numbers:\n    total += number\n\n  return total / len(numbers)",
    "duration": 2.4290842410409823,
    "result_length": 353,
    "average_duration": 2.664694732497446,
    "raw_durations": [
      2.4290842410409823,
      2.3729482099879533,
      2.351214586989954,
      2.344922030926682,
      2.784065525047481,
      2.3413584410445765,
      2.2441993079846725,
      2.2503061160678044,
      3.8742927769199014,
      3.654556088964455
    ],
    "uuid": "b847860a-6bd0-4a93-8b1f-1a07e3e6f411"
  },
  "vertex_text_bison": {
    "result": "def calculate_average(numbers):\n        return sum(numbers) / len(numbers)\n",
    "duration": 0.9349958050297573,
    "result_length": 75,
    "average_duration": 0.9365947409998625,
    "raw_durations": [
      0.9349958050297573,
      0.9557532960316166,
      0.9677284170174971,
      0.9414453189820051,
      0.9275861679343507,
      0.8906780109973624,
      0.904572359053418,
      0.9665273649152368,
      0.8860676380572841,
      0.9905930319800973
    ],
    "uuid": "0c3df0de-1e32-481b-bb12-b38fd6f284cc"
  },
  "vertex_gecko": {
    "result": "#     return sum(numbers) / len(numbers)\n#\n#\n# def calculate_average(numbers):",
    "duration": 1.4347456250106916,
    "result_length": 78,
    "average_duration": 1.363007720874157,
    "raw_durations": [
      1.4347456250106916,
      1.2790072920033708,
      1.3228473749477416,
      1.4272513749310747,
      1.3776911669410765,
      1.3765719999792054,
      1.3403897499665618,
      1.3049950419226661,
      1.386869875015691,
      1.3797077080234885
    ],
    "uuid": "c91f96e9-f82a-4e8b-8c26-831a0b6c6d91"
  },
  "user_intention": "Live Test",
  "language": "python",
  "prompt": "def calculate_average(numbers):",
  "prompt_type": "completion",
  "gitlab_model": {
    "result": "\"\"\"Calculates the average of a list of numbers.\n\n  Args:\n    numbers: A list of numbers.\n\n",
    "duration": 0.6745349440025166,
    "result_length": 90,
    "average_duration": 0.6280137148976792,
    "uuid": "b58b9fc3-41a3-4563-9a44-1c6f9bdf3a36"
  }
}