{
  "anthropic": {
    "result": "def sort_numbers(numbers):\n    sorted_numbers = sorted(numbers)\n    return sorted_numbers",
    "duration": 1.654829013044946,
    "result_length": 89,
    "average_duration": 1.3322446657111868,
    "raw_durations": [
      1.654829013044946,
      1.3095638690283522,
      1.0323411150602624
    ],
    "uuid": "28bf57b4-46fc-4c67-8dab-68baf6a921a4"
  },
  "anthropic_fast": {
    "result": "# def sort_numbers(numbers):  \nnumbers.sort()  \nreturn numbers",
    "duration": 0.5702323629520833,
    "result_length": 62,
    "average_duration": 0.6224317353917286,
    "raw_durations": [
      0.5702323629520833,
      0.9328723259968683,
      0.5770275270333514,
      0.5391421709209681,
      0.708573600044474,
      0.5891822039848194,
      0.5715412310091779,
      0.5818572150310501,
      0.5437541009159759,
      0.6101346160285175
    ],
    "uuid": "02240093-9221-4446-bb62-05c3169f17af"
  },
  "vertex_combined": {
    "result": "def sort_numbers(numbers):\n  \"\"\"Sorts a list of numbers in ascending order.\n\n  Args:\n    numbers: A list of numbers to be sorted.\n\n  Returns:\n    A sorted list of numbers.\n  \"\"\"\n\n  numbers.sort()\n  return numbers",
    "duration": 3.7704411229351535,
    "result_length": 212,
    "average_duration": 3.1430860782158563,
    "raw_durations": [
      3.7704411229351535,
      3.8314450120087713,
      3.9153434310574085,
      2.3593698580516502,
      3.8036770860198885,
      2.3996457729954273,
      2.310479565989226,
      2.631863537011668,
      3.9232950190780684,
      2.485300377011299
    ],
    "uuid": "ed21090d-ea4d-4d71-a38b-cbc4a06e0720"
  },
  "vertex_code_bison": {
    "result": "def sort_numbers(numbers):\n  \"\"\"Sorts a list of numbers in ascending order.\n\n  Args:\n    numbers: A list of numbers to be sorted.\n\n  Returns:\n    A sorted list of numbers.\n  \"\"\"\n\n  # Sort the list of numbers in ascending order.\n  numbers.sort()\n\n  # Return the sorted list of numbers.\n  return numbers",
    "duration": 3.761932739056647,
    "result_length": 301,
    "average_duration": 3.57854470689781,
    "raw_durations": [
      3.761932739056647,
      3.9455728590255603,
      3.8643160790670663,
      3.873684040037915,
      3.9300775419687852,
      3.956113373977132,
      2.3438243869459257,
      3.771930516930297,
      2.408521673991345,
      3.9294738579774275
    ],
    "uuid": "1146ba19-dbb4-4524-bc11-2e9e8831ac49"
  },
  "vertex_text_bison": {
    "result": "def sort_numbers(numbers):\r\n    numbers.sort()\r\n    return numbers\n    ```",
    "duration": 0.7848808950511739,
    "result_length": 74,
    "average_duration": 0.8426663680118509,
    "raw_durations": [
      0.7848808950511739,
      0.8807110369671136,
      0.7923385059693828,
      0.8656097870552912,
      0.851208213949576,
      0.8647532899631187,
      0.8767696210416034,
      0.8678444430697709,
      0.870855989982374,
      0.771691897069104
    ],
    "uuid": "4ec6ac6b-ae3e-4053-8a79-4ebea7ef97f5"
  },
  "vertex_gecko": {
    "result": "#     numbers.sort()\n#     return numbers\n#\n#",
    "duration": 1.520785583066754,
    "result_length": 45,
    "average_duration": 1.5393238959135487,
    "raw_durations": [
      1.520785583066754,
      1.4882945829303935,
      1.391287250095047,
      1.4926489579956979,
      2.1443665840197355,
      1.406685334048234,
      1.5211381670087576,
      1.4652168749598786,
      1.4712781669804826,
      1.491537458030507
    ],
    "uuid": "4dff0551-bc42-4fb7-a396-d78808236591"
  },
  "user_intention": "Live Test",
  "language": "python",
  "prompt": "def sort_numbers(numbers):",
  "prompt_type": "completion",
  "gitlab_model": {
    "result": "\"\"\"Sorts a list of numbers in ascending order.\n\n  Args:\n    numbers: A list of numbers.\n\n",
    "duration": 0.6410709879710339,
    "result_length": 89,
    "average_duration": 0.635481912700925,
    "uuid": "47401ceb-41be-4988-93f0-1b5f4c88713b"
  }
}