{
  "anthropic": {
    "result": "// func factorial(n int) int {\n    if n == 0 {\n        return 1\n    }\n    return n * factorial(n-1)\n}",
    "duration": 1.1747851319378242,
    "result_length": 101,
    "average_duration": 1.320316032890696,
    "raw_durations": [
      1.1747851319378242,
      1.4447420340729877,
      1.3251259060343727,
      1.2660015129949898,
      1.4660830569919199,
      1.2072982100071386,
      1.2294972789241,
      1.307274290942587,
      1.5656217200448737,
      1.2167311869561672
    ],
    "uuid": "857bcb17-c7bc-4d94-b9ec-8f6496377bc8"
  },
  "anthropic_fast": {
    "result": "",
    "uuid": "66a1e2c5-8e7e-44a4-9e69-d85ef8762ffe"
  },
  "vertex_combined": {
    "result": "func factorial(n int) int {\n    if n == 0 {\n        return 1\n    } else {\n        return n * factorial(n - 1)\n    }\n}",
    "duration": 1.419470926048234,
    "result_length": 117,
    "average_duration": 2.0111695955158213,
    "raw_durations": [
      1.419470926048234,
      1.363181954016909,
      2.9909359629964456,
      1.4308480630861595,
      2.844041769974865,
      2.9096544350031763,
      1.4210355080431327,
      2.997759250923991,
      1.3741270700702444,
      1.3606410149950534
    ],
    "uuid": "6d7da910-2542-42ea-bbb4-8d7d7a2e488f"
  },
  "vertex_code_bison": {
    "result": "func factorial(n int) int {\n    if n == 0 {\n        return 1\n    } else {\n        return n * factorial(n - 1)\n    }\n}",
    "duration": 3.0119181770132855,
    "result_length": 117,
    "average_duration": 2.6285552228102462,
    "raw_durations": [
      3.0119181770132855,
      2.9859444809844717,
      2.8725153239211068,
      2.99111472198274,
      2.8716034210519865,
      1.3240663000615314,
      2.937332532950677,
      2.904495540075004,
      2.9448495600372553,
      1.4417121700244024
    ],
    "uuid": "96914bbc-7985-4198-a2c3-380a06f38725"
  },
  "vertex_text_bison": {
    "result": "func factorial(n int) int {\n        if n == 0 {\n            return 1\n        }\n        return n * factorial(n-1)\n    }",
    "duration": 0.9165461249649525,
    "result_length": 118,
    "average_duration": 0.9156577855814249,
    "raw_durations": [
      0.9165461249649525,
      0.9289471548981965,
      0.9179012320237234,
      0.9229287880007178,
      0.9209251489955932,
      0.9257317050360143,
      0.9205328789539635,
      0.9276390529703349,
      0.8530682920245454,
      0.9223574779462069
    ],
    "uuid": "8e55461b-aa32-443a-a2aa-10a93a193bdb"
  },
  "vertex_gecko": {
    "result": "\n// \tif n == 0 {\n// \t\treturn 1\n// \t}\n// \treturn n * factorial(n-1)",
    "duration": 1.3095244159922004,
    "result_length": 66,
    "average_duration": 1.3898051709053107,
    "raw_durations": [
      1.3095244159922004,
      1.5019506249809638,
      1.3783865830628201,
      1.481594791985117,
      1.3723095840541646,
      1.3797200419940054,
      1.4754577920539305,
      1.3130748749244958,
      1.3328179590171203,
      1.3532150409882888
    ],
    "uuid": "0a84e4ca-c1d9-4448-9229-635687e408eb"
  },
  "user_intention": "Live Test",
  "language": "golang",
  "prompt": "func factorial(n int) int {",
  "gitlab_model": {
    "result": "\n    if n == 0 {\n        return 1\n    }\n    return n * factorial(n-1)\n}",
    "duration": 0.5438196550239809,
    "result_length": 71,
    "average_duration": 0.6234759060898796,
    "uuid": "06117397-06e8-492a-b78f-412c46b17b99"
  }
}