{
  "anthropic": {
    "result": "class BankAccount {\n  constructor(initialBalance) {\n    this.balance = initialBalance;\n  }\n  \n  deposit(amount) {\n    this.balance += amount;\n  }\n  \n  withdraw(amount) {\n    this.balance -= amount;\n  }\n  \n  getBalance() {\n    return this.balance;\n  }\n}",
    "duration": 2.095224112039432,
    "result_length": 252,
    "average_duration": 2.640849834901746,
    "raw_durations": [
      2.095224112039432,
      2.5652597880689427,
      2.454574881005101,
      2.3757910559652373,
      2.4337724359938875,
      2.5482184189604595,
      4.307573062018491,
      2.467840173980221,
      2.5982257470022887,
      2.5620186739834026
    ],
    "uuid": "c3f25e3a-f5b8-4d78-a370-3c980c9717bc"
  },
  "anthropic_fast": {
    "result": "class BankAccount {\n  constructor() {\n    this.balance = 0;\n  }\n  \n  deposit(amount) {\n    this.balance += amount; \n  }\n  \n  withdraw(amount) {\n    this.balance -= amount;  \n  }\n}",
    "duration": 2.871277490979992,
    "result_length": 179,
    "average_duration": 2.2031706053880042,
    "raw_durations": [
      2.871277490979992,
      1.9963783989660442,
      1.0219893320463598,
      7.763026958913542,
      1.1581891839159653,
      0.9638013939838856,
      2.27151461399626,
      1.9957668470451608,
      1.0447419170523062,
      0.9450199169805273
    ],
    "uuid": "6af93027-a9b8-4162-ad4e-da65e6870ff9"
  },
  "vertex_combined": {
    "result": "class BankAccount {\n\n  // The account balance.\n  private double balance;\n\n  // The account holder's name.\n  private String name;\n\n  // The account number.\n  private String accountNumber;\n\n  // Constructs a new bank account with the given balance, name, and account number.\n  public BankAccount(double balance, String name, String accountNumber) {\n    this.balance = balance;\n    this.name = name;\n    this.accountNumber = accountNumber;\n  }\n\n  // Deposits the given amount of money into the account.\n  public void deposit(double amount) {\n    this.balance += amount;\n  }\n\n  // Withdraws the given amount of money from the account.\n  public void withdraw(double amount) {\n    this.balance -= amount;\n  }\n\n  // Gets the account balance.\n  public double getBalance() {\n    return this.balance;\n  }\n\n  // Gets the account holder'",
    "duration": 3.8562870459863916,
    "result_length": 825,
    "average_duration": 3.8817980500054547,
    "raw_durations": [
      3.8562870459863916,
      3.924729023943655,
      3.850826248060912,
      3.786962303915061,
      3.9469322960358113,
      3.8458369880681857,
      3.8617631659144536,
      3.8363810080336407,
      3.881447307066992,
      4.026815113029443
    ],
    "uuid": "8d5283e9-831e-4134-ad97-883a8d8ddb4c"
  },
  "vertex_code_bison": {
    "result": "class BankAccount {\n\n  // The account balance.\n  private double balance;\n\n  // The account holder's name.\n  private String name;\n\n  // The account number.\n  private String accountNumber;\n\n  // Constructs a new bank account with the given balance, name, and account number.\n  public BankAccount(double balance, String name, String accountNumber) {\n    this.balance = balance;\n    this.name = name;\n    this.accountNumber = accountNumber;\n  }\n\n  // Deposits the given amount of money into the account.\n  public void deposit(double amount) {\n    this.balance += amount;\n  }\n\n  // Withdraws the given amount of money from the account.\n  public void withdraw(double amount) {\n    this.balance -= amount;\n  }\n\n  // Gets the account balance.\n  public double getBalance() {\n    return this.balance;\n  }\n\n  // Gets the account holder'",
    "duration": 3.944549184059724,
    "result_length": 825,
    "average_duration": 3.8782340057776308,
    "raw_durations": [
      3.944549184059724,
      3.87261855090037,
      3.879671309958212,
      3.8534344600047916,
      3.850543775013648,
      3.827275744988583,
      3.926753852982074,
      3.909347833949141,
      3.8638745029456913,
      3.854270842974074
    ],
    "uuid": "c03408d4-b495-4577-a55f-a571e3203720"
  },
  "vertex_text_bison": {
    "result": "class BankAccount {\n        constructor(balance) {\n            this.balance = balance;\n        }\n\n        deposit(amount) {\n            this.balance += amount;\n        }\n\n        withdraw(amount) {\n            this.balance -= amount;\n        }\n    }",
    "duration": 0.9835292999632657,
    "result_length": 249,
    "average_duration": 0.9111689907847904,
    "raw_durations": [
      0.9835292999632657,
      1.1060625419486314,
      0.8457920149667189,
      0.9033876049797982,
      0.8756851720390841,
      0.8355092720594257,
      1.0004749279469252,
      0.8654887740267441,
      0.8780569039518014,
      0.8177033959655091
    ],
    "uuid": "bae6dd4e-724b-48ac-934c-626bf04e295d"
  },
  "vertex_gecko": {
    "result": "\n// Create a class for a bank account with methods like deposit and withdraw.\n// Create a class for a bank account with methods like deposit and withdraw.\n// Create a class for a bank account with methods like deposit and withdraw.\n// Create a",
    "duration": 1.4043206659844145,
    "result_length": 243,
    "average_duration": 1.3785596542060374,
    "raw_durations": [
      1.4043206659844145,
      1.386935165966861,
      1.4208391669671983,
      1.3117648749612272,
      1.281315749976784,
      1.425563917029649,
      1.3583584590815008,
      1.4227830420713872,
      1.383800124982372,
      1.3899153750389814
    ],
    "uuid": "fa777619-91bf-494e-91b1-6e4f697f230c"
  },
  "user_intention": "Live Test",
  "language": "javascript",
  "prompt": "Create a class for a bank account with methods like deposit and withdraw.",
  "gitlab_model": {
    "result": "```js\nclass BankAccount {\n  constructor(balance) {\n    this.balance = balance;\n  }\n\n  deposit(",
    "duration": 0.5803905799984932,
    "result_length": 94,
    "average_duration": 0.6103913383965847,
    "uuid": "bcb26749-a2be-4176-9a92-4fa24e12d59c"
  }
}