{
  "anthropic": {
    "result": "func removeDuplicates(nums []int) int {\n    if len(nums) == 0 || len(nums) == 1 {\n        return len(nums)\n    }\n    slow, fast := 0, 1\n    for fast < len(nums) {\n        if nums[slow] != nums[fast] {\n            slow++\n            nums[slow] = nums[fast]\n        }\n        fast++\n    }\n    return slow + 1\n}",
    "duration": 2.506257156957872,
    "result_length": 308,
    "average_duration": 2.6570094898925163,
    "raw_durations": [
      2.506257156957872,
      2.6816743849776685,
      2.863188939052634,
      2.675775859039277,
      2.5156540700700134,
      2.79386032698676,
      2.7283826109487563,
      2.491282571107149
    ],
    "uuid": "aaa50e38-3e17-4a6b-8ff1-90b9323d6241"
  },
  "anthropic_fast": {
    "result": "package main\n\nimport \"fmt\"\n\nfunc main() {\n    nums := []int{1, 2, 2, 3, 3, 4, 4, 5}\n    \n    // Use map to keep track of seen numbers\n    seen := make(map[int]bool)\n    \n    j := 0\n    for i, x := range nums {\n        if !seen[x] {\n            seen[x] = true\n            nums[j] = nums[i]  \n            j++    \n        }\n    }\n    \n    // Truncate list to unique",
    "duration": 1.4943524559494108,
    "result_length": 362,
    "average_duration": 2.1042800829862243,
    "raw_durations": [
      1.4943524559494108,
      1.446494581992738,
      1.7148315419908613,
      1.6635852010222152,
      1.9770997730083764,
      1.821958294021897,
      2.301907056942582,
      1.826009733020328,
      4.718101756996475,
      2.0784604349173605
    ],
    "uuid": "f9851a53-fa55-49fe-ae7d-19b92d0047d5"
  },
  "vertex_combined": {
    "result": "# Create a new list.\nnew_list = []\n\n# Iterate over the original list.\nfor item in old_list:\n\n    # If the item is not in the new list, add it to the new list.\n    if item not in new_list:\n        new_list.append(item)\n\n# Repeat steps 2 and 3 until the original list is exhausted.",
    "duration": 3.314918569056317,
    "result_length": 279,
    "average_duration": 3.282218851218931,
    "raw_durations": [
      3.314918569056317,
      3.314567930996418,
      3.2839359670178965,
      3.255552866961807,
      3.2745695700868964,
      3.1811017950531095,
      3.3118702260544524,
      3.3147079900372773,
      3.3847516739042476,
      3.186211923020892
    ],
    "uuid": "37afe945-d5e2-40e5-a04a-8389e41a6d47"
  },
  "vertex_code_bison": {
    "result": "# Create a new list.\nnew_list = []\n\n# Iterate over the original list.\nfor item in old_list:\n\n    # If the item is not already in the new list, add it to the new list.\n    if item not in new_list:\n        new_list.append(item)\n\n# Repeat steps 2 and 3 until the original list is exhausted.",
    "duration": 3.2549455569824204,
    "result_length": 287,
    "average_duration": 3.306361112673767,
    "raw_durations": [
      3.2549455569824204,
      3.383602728950791,
      3.2827799300430343,
      3.3510278849862516,
      3.3174848679918796,
      3.2483417289331555,
      3.24878662195988,
      3.2536010679323226,
      3.3489028749754652,
      3.374137863982469
    ],
    "uuid": "88c5c6fe-4a63-4134-8481-d87642b45cf8"
  },
  "vertex_text_bison": {
    "result": "```\npackage main\n\nimport (\n    \"fmt\"\n    \"sort\"\n)\n\nfunc main() {\n    // Create a list of strings.\n    names := []string{\"John\", \"Jane\", \"John\", \"Mary\", \"Jane\"}\n\n    // Sort the list.\n    sort.Strings(names)\n\n    // Create a new list to store the unique names.\n    uniqueNames := []string{}\n\n    // Iterate over the list of names and add each unique name to the new list.\n    for i := 0; i < len(names); i++ {\n        if i == 0 || names[i] != names[i-1] {\n            uniqueNames = append(uniqueNames, names[i])\n        }\n    }\n\n    // Print the unique names.\n    fmt.Println(uniqueNames)\n}\n```",
    "duration": 2.3779254810651764,
    "result_length": 593,
    "average_duration": 2.3471381615032443,
    "raw_durations": [
      2.3779254810651764,
      2.347943439031951,
      2.3672015650663525,
      2.3142822419758886,
      2.2757883799495175,
      2.395632835919969,
      2.355253934976645,
      2.3764664500486106,
      2.364816091954708,
      2.2960711950436234
    ],
    "uuid": "4628c725-4dbe-4232-bf50-97155cc26671"
  },
  "vertex_gecko": {
    "result": "\n\nimport java.util.ArrayList;\nimport java.util.Arrays;\nimport java.util.List;",
    "duration": 1.4127802909351885,
    "result_length": 77,
    "average_duration": 1.4247517332900315,
    "raw_durations": [
      1.4127802909351885,
      1.4124893330736086,
      1.7337529589422047,
      1.4107871670275927,
      1.3129892079159617,
      1.3713765409775078,
      1.4934492920292541,
      1.3817089160438627,
      1.3336907089687884,
      1.3844929169863462
    ],
    "uuid": "8f3353e8-cd7c-407f-a8ee-f43f07399276"
  },
  "user_intention": "Live Test",
  "language": "golang",
  "prompt": "Write a program to remove duplicates from a list.",
  "gitlab_model": {
    "result": "```go\npackage main\n\nimport (\n    \"fmt\"\n)\n\nfunc main() {\n    // Create a list of integers.\n",
    "duration": 0.673155048978515,
    "result_length": 90,
    "average_duration": 0.6215538157906849,
    "uuid": "4aedeacf-e698-46fb-a7d2-57d40d398253"
  }
}