{
  "anthropic": {
    "result": "// Implement a function to find the factorial of a given number.\nfunc Factorial(n int) int {\n    if n == 0 {\n        return 1\n    }\n    return n * Factorial(n-1)\n}",
    "duration": 1.707591010024771,
    "result_length": 163,
    "average_duration": 1.659324855892919,
    "raw_durations": [
      1.707591010024771,
      1.7555976290022954,
      1.7510598830413073,
      1.5821152679855004,
      1.5411007239017636,
      1.626430646982044,
      1.4832563549280167,
      1.8005384240532294,
      1.7006560739828274,
      1.6449025450274348
    ],
    "uuid": "e7bde425-5e71-4f32-8cbc-12d8b6374177"
  },
  "anthropic_fast": {
    "result": "// Implement a function to find the factorial of a given number.\nfunc factorial(n int) int {\n    if n == 0 {\n        return 1\n    }\n    return n * factorial(n-1)\n}",
    "duration": 0.8807590820360929,
    "result_length": 163,
    "average_duration": 1.0931414987891912,
    "raw_durations": [
      0.8807590820360929,
      0.8901812799740583,
      0.8994008689187467,
      0.9060474629513919,
      1.4445017370162532,
      0.9429531819187105,
      1.080563660012558,
      2.1682109270477667,
      0.8567911140853539,
      0.8620056739309803
    ],
    "uuid": "939009ac-ad83-4f5b-9c91-0b275420d65c"
  },
  "vertex_combined": {
    "result": "def factorial(n):\n  \"\"\"\n  This function returns the factorial of a given number.\n\n  Args:\n    n: The number to find the factorial of.\n\n  Returns:\n    The factorial of n.\n  \"\"\"\n\n  if n < 0:\n    raise ValueError(\"n must be non-negative\")\n\n  if n == 0:\n    return 1\n\n  return n * factorial(n - 1)",
    "duration": 2.828724520979449,
    "result_length": 293,
    "average_duration": 2.800974212726578,
    "raw_durations": [
      2.828724520979449,
      2.7427187140565366,
      2.7631589480442926,
      2.7569901620736346,
      2.7335078270407394,
      2.9356592419790104,
      2.823062489973381,
      2.8262827480211854,
      2.814553684089333,
      2.785083791008219
    ],
    "uuid": "7d670b53-9c65-4556-aa8a-afaac9a9b500"
  },
  "vertex_code_bison": {
    "result": "def factorial(n):\n  \"\"\"\n  This function returns the factorial of a given number.\n\n  Args:\n    n: The number to find the factorial of.\n\n  Returns:\n    The factorial of n.\n  \"\"\"\n\n  if n < 0:\n    raise ValueError(\"n must be non-negative\")\n\n  if n == 0:\n    return 1\n\n  return n * factorial(n - 1)",
    "duration": 2.7511169250356033,
    "result_length": 293,
    "average_duration": 2.852513268601615,
    "raw_durations": [
      2.7511169250356033,
      2.7793740179622546,
      2.7409942420199513,
      2.728208639076911,
      2.827144618029706,
      3.856836626888253,
      2.7612857399508357,
      2.826507329940796,
      3.009983409079723,
      2.243681138032116
    ],
    "uuid": "7d89588f-3c6d-4cca-b6cd-12c75b77f485"
  },
  "vertex_text_bison": {
    "result": "func factorial(n int) int {\n        if n == 0 {\n            return 1\n        }\n        return n * factorial(n-1)\n    }",
    "duration": 0.9112980259815231,
    "result_length": 118,
    "average_duration": 0.9110165627091191,
    "raw_durations": [
      0.9112980259815231,
      0.9132080890703946,
      0.9078554209554568,
      0.9378619010094553,
      0.8765498419525102,
      0.9067047040443867,
      0.9077915900852531,
      0.9176649190485477,
      0.9156587549950927,
      0.9155723799485713
    ],
    "uuid": "3c468856-f460-4b53-b547-fe785ab5d237"
  },
  "vertex_gecko": {
    "result": "\n\n#include <iostream>\n#include <cmath>",
    "duration": 1.376489165937528,
    "result_length": 38,
    "average_duration": 1.401916983409319,
    "raw_durations": [
      1.376489165937528,
      1.4522279589436948,
      1.4498632909962907,
      1.5292288339696825,
      1.263890750007704,
      1.4142474581021816,
      1.3978115420322865,
      1.3803540840744972,
      1.3686117919860408,
      1.3864449580432847
    ],
    "uuid": "813393c5-0bcd-484c-9bab-999143ea1938"
  },
  "user_intention": "Live Test",
  "language": "golang",
  "prompt": "Implement a function to find the factorial of a given number.",
  "gitlab_model": {
    "result": "```go\nfunc factorial(n int) int {\n  if n == 0 {\n    return 1\n  }\n  return n *",
    "duration": 0.6466742040356621,
    "result_length": 77,
    "average_duration": 0.6755799846083391,
    "uuid": "2c33f440-bae7-4e38-a4ff-6636a5313e2c"
  }
}