{
  "anthropic": {
    "result": "func isEven(num int) bool {\n    if num%2 == 0 {\n        return true\n    }\n    return false\n}",
    "duration": 1.3468406239990145,
    "result_length": 92,
    "average_duration": 1.4522317898925394,
    "raw_durations": [
      1.3468406239990145,
      1.231326412060298,
      1.1234440439147875,
      1.4347877140389755,
      1.5364111319649965,
      1.7212998570175841,
      2.2815514819230884,
      1.3655114960856736,
      1.2764956419123337,
      1.204649496008642
    ],
    "uuid": "e79721cf-9b97-4b8d-a2cc-34319aafb3ec"
  },
  "anthropic_fast": {
    "result": "// Implement a function to check if a given number is even or odd.\nfunc checkNumber(num int)  {\n    if num % 2 == 0 {\n        fmt.Println(\"%d is even\", num)   \n    } else {\n        fmt.Println(\"%d is odd\", num)\n    }\n}",
    "duration": 0.9736381819238886,
    "result_length": 218,
    "average_duration": 1.4807409276383825,
    "raw_durations": [
      0.9736381819238886,
      0.8333649740088731,
      0.8583712339168414,
      1.0175003359327093,
      2.5028780580032617,
      2.271045606932603,
      0.946365608018823,
      2.7950378860114142,
      1.1284664639970288
    ],
    "uuid": "d92f2b61-05ba-4211-b019-b6d453b5c9d6"
  },
  "vertex_combined": {
    "result": "function isEven(n) {\n  if (n % 2 == 0) {\n    return true;\n  } else {\n    return false;\n  }\n}\n\n// Test the function\nconsole.log(isEven(2)); // true\nconsole.log(isEven(3)); // false",
    "duration": 2.8213267859537154,
    "result_length": 179,
    "average_duration": 3.199101307580713,
    "raw_durations": [
      2.8213267859537154,
      3.4899949110113084,
      3.486640049959533,
      3.462017967016436,
      2.7675168839050457,
      2.8116241140523925,
      2.746244321926497,
      3.5321264800149947,
      3.452656556968577,
      3.4208650049986318
    ],
    "uuid": "abf211bd-1a1b-4e1d-b375-f9a5970000ef"
  },
  "vertex_code_bison": {
    "result": "function isEven(n) {\n  if (n % 2 == 0) {\n    return true;\n  } else {\n    return false;\n  }\n}\n\n// Test the function\nconsole.log(isEven(2)); // true\nconsole.log(isEven(3)); // false",
    "duration": 3.5345247910590842,
    "result_length": 179,
    "average_duration": 3.274164801929146,
    "raw_durations": [
      3.5345247910590842,
      3.458444103016518,
      2.793152886093594,
      2.718457345967181,
      3.563594797044061,
      3.3960604059975594,
      3.451967954984866,
      3.5271442950470373,
      2.8006192080210894,
      3.4976822320604697
    ],
    "uuid": "0da852ad-a46b-4c3b-9b3d-8829a5b8ebc1"
  },
  "vertex_text_bison": {
    "result": "func isEven(n int) bool {\n        return n%2 == 0\n    }",
    "duration": 0.7972226979909465,
    "result_length": 55,
    "average_duration": 0.8068250756128691,
    "raw_durations": [
      0.7972226979909465,
      0.8159390670480207,
      0.8039177050814033,
      0.8045755689963698,
      0.8145592139335349,
      0.7325045900652185,
      0.8286554409423843,
      0.7313933919649571,
      0.8103427010355517,
      0.9291403790703043
    ],
    "uuid": "778d54c7-c3db-4766-bd54-162226fc4fca"
  },
  "vertex_gecko": {
    "result": "\n\n// Example:\n\n// Input: 25",
    "duration": 1.412030249950476,
    "result_length": 27,
    "average_duration": 1.4005803707172162,
    "raw_durations": [
      1.412030249950476,
      1.316352041088976,
      1.4182780840201303,
      1.4275182919809595,
      1.3396627909969538,
      1.4139841659925878,
      1.3585795830003917,
      1.368211125023663,
      1.4761117920279503,
      1.4750755830900744
    ],
    "uuid": "ddefa43d-a010-406a-95de-f65f22ed9181"
  },
  "user_intention": "Live Test",
  "language": "golang",
  "prompt": "Implement a function to check if a given number is even or odd.",
  "gitlab_model": {
    "result": "```go\nfunc isEven(n int) bool {\n  return n % 2 == 0\n}\n```",
    "duration": 0.5745805840124376,
    "result_length": 57,
    "average_duration": 0.6062070799991488,
    "uuid": "53c1b889-1436-454a-84dd-de33cd4e5c2a"
  }
}