{
  "anthropic": {
    "result": "// Create a dictionary that maps book titles to their authors.\nbookAuthors := map[string]string{\n    \"The Alchemist\": \"Paulo Coelho\",\n    \"Harry Potter\": \"J.K. Rowling\",\n    \"The Handmaid's Tale\": \"Margaret Atwood\",\n}",
    "duration": 2.1658823940670118,
    "result_length": 217,
    "average_duration": 2.276292097195983,
    "raw_durations": [
      2.1658823940670118,
      2.0922171119600534,
      2.0198778240010142,
      2.4950663370545954,
      2.488058125018142,
      2.4405358559451997,
      2.470146636944264,
      2.0996356420218945,
      2.1818300399463624,
      2.3096710050012916
    ],
    "uuid": "9172fae4-cc4a-42fa-a13c-b53742423036"
  },
  "anthropic_fast": {
    "result": "var books = map[string]string{\n    \"The Hitchhiker's Guide to the Galaxy\": \"Douglas Adams\",\n    \"The Hobbit\": \"J. R. R. Tolkien\",\n}",
    "duration": 1.0728802760131657,
    "result_length": 131,
    "average_duration": 0.9176244935020804,
    "raw_durations": [
      1.0728802760131657,
      0.7480976600199938,
      0.511567433946766,
      1.3915477680275217,
      0.9143516150070354,
      0.839784377021715,
      0.8868739189347252,
      0.8377313950331882,
      0.870496800984256,
      1.1029136900324374
    ],
    "uuid": "4edc2bc0-be50-41a9-b56a-151575ecf7c7"
  },
  "vertex_combined": {
    "result": "{\n  \"The Hitchhiker's Guide to the Galaxy\": \"Douglas Adams\",\n  \"The Lord of the Rings\": \"J.R.R. Tolkien\",\n  \"Harry Potter and the Sorcerer's Stone\": \"J.K. Rowling\",\n  \"To Kill a Mockingbird\": \"Harper Lee\",\n  \"1984\": \"George Orwell\",\n  \"The Catcher in the Rye\": \"J.D. Salinger\",\n  \"Beloved\": \"Toni Morrison\",\n  \"The Color Purple\": \"Alice Walker\",\n  \"Things Fall Apart\": \"Chinua Achebe\",\n  \"One Hundred Years of Solitude\": \"Gabriel Garc\u00eda M\u00e1rquez\"\n}",
    "duration": 2.893361271941103,
    "result_length": 447,
    "average_duration": 2.9347441153251568,
    "raw_durations": [
      2.893361271941103,
      2.9382625590078533,
      2.849174051079899,
      2.8330403580330312,
      2.877005522022955,
      2.9594490580493584,
      3.0199178130133078,
      2.9233585600741208,
      3.011053330032155,
      3.0428186299977824
    ],
    "uuid": "ddda26a0-c651-4a70-b5a4-45212bd666ef"
  },
  "vertex_code_bison": {
    "result": "{\n  \"The Hitchhiker's Guide to the Galaxy\": \"Douglas Adams\",\n  \"The Lord of the Rings\": \"J.R.R. Tolkien\",\n  \"Harry Potter and the Sorcerer's Stone\": \"J.K. Rowling\",\n  \"To Kill a Mockingbird\": \"Harper Lee\",\n  \"1984\": \"George Orwell\",\n  \"The Great Gatsby\": \"F. Scott Fitzgerald\",\n  \"Beloved\": \"Toni Morrison\",\n  \"The Color Purple\": \"Alice Walker\",\n  \"Things Fall Apart\": \"Chinua Achebe\",\n  \"One Hundred Years of Solitude\": \"Gabriel Garc\u00eda M\u00e1rquez\"\n}",
    "duration": 2.952767092967406,
    "result_length": 447,
    "average_duration": 2.9636024703853763,
    "raw_durations": [
      2.952767092967406,
      3.035633260034956,
      2.93650724098552,
      2.976384407025762,
      2.9140667649917305,
      2.98854539799504,
      2.9649392939172685,
      2.9482922239694744,
      2.889141969033517,
      3.0297470529330894
    ],
    "uuid": "2bad30cd-1073-4345-bcc6-cc40c3fa1afb"
  },
  "vertex_text_bison": {
    "result": "var books = map[string]string{\n        \"The Great Gatsby\": \"F. Scott Fitzgerald\",\n        \"One Hundred Years of Solitude\": \"Gabriel Garc\u00eda M\u00e1rquez\",\n        \"To Kill a Mockingbird\": \"Harper Lee\",\n    }",
    "duration": 0.7796686120564118,
    "result_length": 201,
    "average_duration": 0.7350392646156252,
    "raw_durations": [
      0.7796686120564118,
      0.7085782890208066,
      0.7615811669966206,
      0.7084800669690594,
      0.7757836040109396,
      0.7445217060158029,
      0.7217500780243427,
      0.6854977330658585,
      0.7446359019959345,
      0.7198954880004749
    ],
    "uuid": "732c7d7d-9327-4a4b-bdf6-62856b0123f1"
  },
  "vertex_gecko": {
    "result": "\n        Dictionary<string, string> books = new Dictionary<string, string>();\n\n        // Add books to the dictionary.\n        books.Add(\"The Hobbit\", \"J.R.R. Tolkein\");",
    "duration": 1.3552028749836609,
    "result_length": 169,
    "average_duration": 1.3816446168115362,
    "raw_durations": [
      1.3552028749836609,
      1.3780562500469387,
      1.3305048330221325,
      1.4074410420143977,
      1.4313634589780122,
      1.3677092500729486,
      1.402382375090383,
      1.387525707948953,
      1.3798023340059444,
      1.3764580419519916
    ],
    "uuid": "255af0fb-c2c6-4daf-84ac-6248a0e29f5c"
  },
  "user_intention": "Live Test",
  "language": "golang",
  "prompt": "Create a dictionary that maps book titles to their authors.",
  "gitlab_model": {
    "result": "```\nbooks := map[string]string{\n    \"The Great Gatsby\": \"F. Scott Fitzgerald\",\n    \"One Hundred Years of Solitude",
    "duration": 0.6451490460312925,
    "result_length": 113,
    "average_duration": 0.6228739800921176,
    "uuid": "82591d41-83f4-409b-8660-e6a5be3a9fdf"
  }
}