{
  "anthropic": {
    "result": "func isValidEmail(email string) bool {\n    // Check if email contains @ symbol\n    if !strings.Contains(email, \"@\") {\n        return false\n    }\n    // Split email into local and domain parts\n    parts := strings.Split(email, \"@\")\n    local, domain := parts[0], parts[1]\n    \n    // Check length of local and domain\n    if len(local) < 1 || len(domain) < 1 {\n        return false\n    }\n    \n    // Check if local contains only letters, digits and periods\n    for _, c := range local {\n        if !unicode.IsLetter(",
    "duration": 3.9107588659971952,
    "result_length": 514,
    "average_duration": 3.572705672122538,
    "raw_durations": [
      3.9107588659971952,
      2.0097364329267293,
      4.187167461030185,
      3.871472623082809,
      4.184052231023088,
      2.3592994939535856,
      4.129553055972792,
      3.92960521299392
    ],
    "uuid": "13c9166d-df40-4c06-b062-5859ef4dbd1e"
  },
  "anthropic_fast": {
    "result": "func isValidEmail(email string) bool { \n    emailRegex := regexp.MustCompile(\"^[a-zA-Z0-9.!#$%&'*+\\\\/=?^_`{|}~-]+@[a-zA-Z0-9](?:[a-zA-Z0-9-]{0,61}[a-zA-Z0-9])?(?:\\\\.[a-zA-Z0-9](?:[a-zA-Z0-9-]{0,61}[",
    "duration": 1.8111951890168712,
    "result_length": 198,
    "average_duration": 1.536412384430878,
    "raw_durations": [
      1.8111951890168712,
      1.48390695406124,
      1.5646347060101107,
      1.3162461320171133,
      1.827554707066156,
      1.8637864340562373,
      1.353530495078303,
      1.3544258490437642,
      1.3359832339920104,
      1.4528601439669728
    ],
    "uuid": "9b11ee58-bfd1-45a8-8265-d76892e6b9ec"
  },
  "vertex_combined": {
    "result": "",
    "uuid": "4cf9ebaa-0961-42cc-8404-ac85692e3764"
  },
  "vertex_code_bison": {
    "result": "",
    "uuid": "bde803b3-e4b6-4c8d-9166-0a4a5885778c"
  },
  "vertex_text_bison": {
    "result": "func isValidEmail(email string) bool {\n        // Check if the email address is valid.\n        // The email address must contain an @ symbol and a period.\n        if !strings.Contains(email, \"@\") || !strings.Contains(email, \".\") {\n            return false\n        }\n\n        // Split the email address into the local part and the domain part.\n        localPart, domainPart := strings.Split(email, \"@\")\n\n        // Check if the local part is valid.\n        // The local part must contain at least one character and cannot contain any spaces.\n        if len(localPart) < 1 || strings.Contains(localPart, \" \") {\n            return false\n        }\n\n        // Check if the domain part is valid.\n        // The domain part must contain at least one period and cannot contain any spaces.\n        if len(domainPart) < 1 || strings.Contains(domainPart, \" \") {\n            return false\n        }\n\n        // The email address is valid.\n        return true\n    }",
    "duration": 2.3588642469840124,
    "result_length": 952,
    "average_duration": 2.3410448959912173,
    "raw_durations": [
      2.3588642469840124,
      2.275307866046205,
      2.3697367639979348,
      2.358566469978541,
      2.3655744229909033,
      2.362173940986395,
      2.350587068940513,
      2.3028532980242744,
      2.3761399689828977,
      2.290644912980497
    ],
    "uuid": "62e93886-7a82-4213-973f-858e26bf3212"
  },
  "vertex_gecko": {
    "result": "\n\n// Example:\n\n// \"james.wilson@example-pet-store.com\" -> true",
    "duration": 1.440913957892917,
    "result_length": 62,
    "average_duration": 1.3843742332188413,
    "raw_durations": [
      1.440913957892917,
      1.3501384580740705,
      1.4046693339478225,
      1.3012493751011789,
      1.2782697080401704,
      1.4508360830368474,
      1.4740361659787595,
      1.3810034580528736,
      1.2857522920239717,
      1.476873500039801
    ],
    "uuid": "18dcf24b-eec9-49ec-a94a-18eee1c6e4c1"
  },
  "user_intention": "Live Test",
  "language": "golang",
  "prompt": "Implement a function to check if a given string is a valid email address.",
  "gitlab_model": {
    "result": "```go\nfunc IsValidEmail(email string) bool {\n  // Check if the email address is valid.\n  if len(email) <",
    "duration": 0.5784623469808139,
    "result_length": 104,
    "average_duration": 0.6520448407914955,
    "uuid": "9d3a3b4a-cb96-4fbd-906a-d79385db9885"
  }
}