{
  "anthropic": {
    "result": "# Create a dictionary that maps book titles to their authors.\nbook_dict = {\n    \"Harry Potter\": \"J.K. Rowling\", \n    \"The Lord of the Rings\": \"J.R.R. Tolkien\",\n    \"To Kill a Mockingbird\": \"Harper Lee\"\n}",
    "duration": 4.153999347006902,
    "result_length": 203,
    "average_duration": 2.6978925095056185,
    "raw_durations": [
      4.153999347006902,
      2.2388384949881583,
      2.47903047001455,
      2.7134023589314893,
      2.737017398001626,
      3.042780250078067,
      2.351948540075682,
      2.3226779729593545,
      2.4289865280734375,
      2.5102437349269167
    ],
    "uuid": "b2330996-1f36-40cb-9291-c8dd136f8ef6"
  },
  "anthropic_fast": {
    "result": "book_authors = {\n    \"Harry Potter\" : \"J. K. Rowling\",\n    \"Lord of The Rings\": \"J. R. R. Tolkien\",\n    \"The Hobbit\": \"J. R. R. Tolkien\"\n}",
    "duration": 0.8638901599915698,
    "result_length": 138,
    "average_duration": 1.1384905930259266,
    "raw_durations": [
      0.8638901599915698,
      0.7685260870493948,
      0.832969143986702,
      0.7854440390365198,
      0.8870142990490422,
      0.9151936899870634,
      2.4628630850929767,
      2.2318450439488515,
      0.7682204790180549,
      0.8689399030990899
    ],
    "uuid": "f5751ebe-d513-474d-b5ac-33a3e3e8f3f9"
  },
  "vertex_combined": {
    "result": "{\n    \"The Hitchhiker's Guide to the Galaxy\": \"Douglas Adams\",\n    \"The Lord of the Rings\": \"J.R.R. Tolkien\",\n    \"Harry Potter\": \"J.K. Rowling\",\n    \"The Hunger Games\": \"Suzanne Collins\",\n    \"Twilight\": \"Stephenie Meyer\",\n}",
    "duration": 2.723100221948698,
    "result_length": 225,
    "average_duration": 2.6893723298097028,
    "raw_durations": [
      2.723100221948698,
      2.7004142199875787,
      2.763894274015911,
      2.7194402270251885,
      2.643240527017042,
      2.7129578640451655,
      2.6376959279878065,
      2.690554521046579,
      2.6461117850849405,
      2.6563137299381196
    ],
    "uuid": "a102413d-4737-41ed-b847-810c2365ea1c"
  },
  "vertex_code_bison": {
    "result": "{\n    \"The Hitchhiker's Guide to the Galaxy\": \"Douglas Adams\",\n    \"The Lord of the Rings\": \"J.R.R. Tolkien\",\n    \"Harry Potter\": \"J.K. Rowling\",\n    \"The Hunger Games\": \"Suzanne Collins\",\n    \"Twilight\": \"Stephenie Meyer\",\n}",
    "duration": 2.794362972024828,
    "result_length": 225,
    "average_duration": 2.74071452699136,
    "raw_durations": [
      2.794362972024828,
      2.7309210129315034,
      2.7888256299775094,
      2.766890055965632,
      2.6420421439688653,
      2.782738698995672,
      2.6839759020367637,
      2.6848766460316256,
      2.7586339049739763,
      2.7738783030072227
    ],
    "uuid": "7f6cc852-453b-4c6d-aff1-c970ebcc24b1"
  },
  "vertex_text_bison": {
    "result": "dictionary = {\n        \"The Great Gatsby\": \"F. Scott Fitzgerald\",\n        \"To Kill a Mockingbird\": \"Harper Lee\",\n        \"1984\": \"George Orwell\",\n        \"The Catcher in the Rye\": \"J.D. Salinger\",\n        \"Fahrenheit 451\": \"Ray Bradbury\",\n    }",
    "duration": 1.1752865399466828,
    "result_length": 244,
    "average_duration": 1.1599192389752715,
    "raw_durations": [
      1.1752865399466828,
      1.0975413490086794,
      1.0884288310771808,
      1.1595217289868742,
      1.2059427399653941,
      1.1669968960341066,
      1.1683825940126553,
      1.1676378758857027,
      1.1899068428901955,
      1.1795469919452444
    ],
    "uuid": "a91ee0ff-7509-4fa8-8332-731f38a52ac1"
  },
  "vertex_gecko": {
    "result": "\n\n# In[17]:",
    "duration": 1.523149291984737,
    "result_length": 11,
    "average_duration": 1.492957750183996,
    "raw_durations": [
      1.523149291984737,
      1.4323840419529006,
      1.4965204170439392,
      1.3382798749953508,
      1.5179027919657528,
      1.5835912919137627,
      1.4897969589801505,
      1.479767041048035,
      1.4769899169914424,
      1.591195874963887
    ],
    "uuid": "f7e2fd2b-8fba-4c7b-b5dc-28ed1dd04634"
  },
  "user_intention": "Live Test",
  "language": "python",
  "prompt": "Create a dictionary that maps book titles to their authors.",
  "gitlab_model": {
    "result": "book_to_author = {\n    \"The Great Gatsby\": \"F. Scott Fitzgerald\",\n    \"One Hundred Years of Solitude\": \"Gabriel",
    "duration": 0.5873661359655671,
    "result_length": 111,
    "average_duration": 0.6373915160016622,
    "uuid": "bb120360-24aa-49bc-80a3-cb341d73ce29"
  }
}