{
  "anthropic": {
    "result": "#include <stdio.h>\n#include <string.h>\n\ntypedef struct {\n    char country[50];\n    char capital[50]; \n} Country;\n\nint main() {\n    Country countries[] = {\n        {\"United States\", \"Washington DC\"},\n        {\"India\", \"New Delhi\"},\n        {\"United Kingdom\", \"London\"},\n        {\"China\", \"Beijing\"},\n        {\"Russia\", \"Moscow\"},\n        {\"Canada\", \"Ottawa\"},\n        {\"Brazil\", \"Brasilia\"},\n        {\"South Africa\", \"Pretoria\"},\n        {\"Egypt\", \"C",
    "duration": 3.300124447909184,
    "result_length": 449,
    "average_duration": 3.4992582602892073,
    "raw_durations": [
      3.300124447909184,
      3.2608345469925553,
      3.0771599110448733,
      3.1925235809758306,
      3.5974049889482558,
      3.733186575002037,
      3.2092775019118562,
      3.3578242929652333,
      4.925946535076946,
      3.3383002220652997
    ],
    "uuid": "d2f863f2-cddf-4a83-a56a-379341c3bb3c"
  },
  "anthropic_fast": {
    "result": "// Create a dictionary that maps country names to their capital cities.\n\n#include <stdio.h>\n\nint main() {\n   char* country[3] = {\"India\", \"USA\", \"UK\"};    \n   char* capital[3] = {\"New Delhi\", \"Washington DC\", \"London\"};\n\n   for (int i = 0; i < 3; i++) {\n       printf(\"%s's capital is %s.\\n\", country[i], capital[i]);\n   }\n\n   return 0;\n}",
    "duration": 2.2026661300333217,
    "result_length": 338,
    "average_duration": 2.087846085021738,
    "raw_durations": [
      2.2026661300333217,
      1.4593870399985462,
      3.362804268952459,
      2.9731274150544778,
      3.16497940197587,
      1.4228870960650966,
      1.4547978130867705,
      1.4702030490152538,
      1.617030587978661,
      1.7505780480569229
    ],
    "uuid": "ad25155d-0eb5-493b-bed8-740ddb86a97a"
  },
  "vertex_combined": {
    "result": "capitals = {\n    \"Argentina\": \"Buenos Aires\",\n    \"Bolivia\": \"La Paz\",\n    \"Brazil\": \"Brasilia\",\n    \"Chile\": \"Santiago\",\n    \"Colombia\": \"Bogota\",\n    \"Ecuador\": \"Quito\",\n    \"French Guiana\": \"Cayenne\",\n    \"Guyana\": \"Georgetown\",\n    \"Paraguay\": \"Asuncion\",\n    \"Peru\": \"Lima\",\n    \"Suriname\": \"Paramaribo\",\n    \"Uruguay\": \"Montevideo\",\n    \"Venezuela\": \"Caracas\"\n}",
    "duration": 3.437524300068617,
    "result_length": 367,
    "average_duration": 3.373168039508164,
    "raw_durations": [
      3.437524300068617,
      3.363095141015947,
      3.3489453919464722,
      3.297029379988089,
      3.314650307991542,
      3.3406228449894115,
      3.409709402010776,
      3.3503777970327064,
      3.4405290980357677,
      3.4291967320023105
    ],
    "uuid": "c7abc958-8bf2-49d6-9fcc-ba5d68fa45ac"
  },
  "vertex_code_bison": {
    "result": "capitals = {\n    \"Argentina\": \"Buenos Aires\",\n    \"Bolivia\": \"La Paz\",\n    \"Brazil\": \"Brasilia\",\n    \"Chile\": \"Santiago\",\n    \"Colombia\": \"Bogota\",\n    \"Ecuador\": \"Quito\",\n    \"French Guiana\": \"Cayenne\",\n    \"Guyana\": \"Georgetown\",\n    \"Paraguay\": \"Asuncion\",\n    \"Peru\": \"Lima\",\n    \"Suriname\": \"Paramaribo\",\n    \"Uruguay\": \"Montevideo\",\n    \"Venezuela\": \"Caracas\"\n}",
    "duration": 3.270073893945664,
    "result_length": 367,
    "average_duration": 3.3406634231680075,
    "raw_durations": [
      3.270073893945664,
      3.2895278659416363,
      3.3696921739028767,
      3.383166775922291,
      3.444076135987416,
      3.3413758300011978,
      3.2872625989839435,
      3.3085152599960566,
      3.35059121705126,
      3.362352479947731
    ],
    "uuid": "de8cc254-7407-4f4d-8b04-a700e4301b29"
  },
  "vertex_text_bison": {
    "result": "const char *capitals[] = {\n        \"London\", \"Paris\", \"Berlin\", \"Rome\", \"Madrid\", \"Beijing\", \"Moscow\", \"Tokyo\", \"New Delhi\", \"Washington, D.C.\"\n    };\n\n    const char *countries[] = {\n        \"United Kingdom\", \"France\", \"Germany\", \"Italy\", \"Spain\", \"China\", \"Russia\", \"Japan\", \"India\", \"United States\"\n    };\n\n    // Create a dictionary that maps country names to their capital cities.\n    const char *capitals[] = {\n        \"London\", \"Paris\", \"Berlin\", \"Rome\", \"Madrid\", \"Beijing\", \"Moscow\", \"Tokyo\", \"New Delhi\", \"Washington, D.C.\"\n    };\n\n    const char *countries[] = {\n        \"United Kingdom\", \"France\", \"Germany\", \"Italy\", \"Spain\", \"China\", \"Russia\", \"Japan\", \"India\", \"United States\"\n    };\n\n    // Create a dictionary that maps country names to their capital cities.\n    const char *capitals[] = {\n        \"London\", \"Paris\", \"Berlin\", \"Rome\", \"Madrid\", \"Beijing\", \"Moscow",
    "duration": 2.353512825910002,
    "result_length": 880,
    "average_duration": 2.328252235997934,
    "raw_durations": [
      2.353512825910002,
      2.2723091340158135,
      2.278776351013221,
      2.3630875559756532,
      2.3646362519357353,
      2.2868692270712927,
      2.422791530028917,
      2.3560898589203134,
      2.291442400077358,
      2.293007225031033
    ],
    "uuid": "2ab428d6-8720-4a74-9b6b-ff5bf0680b59"
  },
  "vertex_gecko": {
    "result": "\n        Dictionary<string, string> countryCapital = new Dictionary<string, string>();\n        countryCapital.Add(\"USA\", \"Washington DC\");\n        countryCapital.Add(\"India\", \"New Delhi\");",
    "duration": 1.4372150420676917,
    "result_length": 188,
    "average_duration": 1.391842112620361,
    "raw_durations": [
      1.4372150420676917,
      1.374332542065531,
      1.3367880419827998,
      1.4087099579628557,
      1.376390999997966,
      1.391777207958512,
      1.3693452500738204,
      1.4774999170331284,
      1.3699595000362024,
      1.3764026670251042
    ],
    "uuid": "a3221771-e67d-4014-9851-88dbbcef9533"
  },
  "user_intention": "Live Test",
  "language": "c",
  "prompt": "Create a dictionary that maps country names to their capital cities.",
  "gitlab_model": {
    "result": "```python\ncountry_to_capital = {\n    \"Argentina\": \"Buenos Aires\",\n    \"Australia\": \"Canberra\",\n    \"",
    "duration": 0.6060271890019067,
    "result_length": 100,
    "average_duration": 0.6297854177071713,
    "uuid": "24b9f56f-d8bb-48fa-948b-171cf8e939ce"
  }
}