{
  "anthropic": {
    "result": "#include <stdio.h>\n#include <string.h>\n\nint main() {\n    char* strs[] = {\"flower\",\"flow\",\"flight\"};\n    int n = sizeof(strs)/sizeof(strs[0]);\n\n    int minLen = INT_MAX;\n    for(int i=0; i<n; i++) {\n        minLen = min(minLen, strlen(strs[i]));\n    }\n\n    char prefix[minLen+1]; \n    int j;\n    for(j=0; j<minLen; j++) {\n        char ch = strs",
    "duration": 3.475815018056892,
    "result_length": 343,
    "average_duration": 3.6058428637101314,
    "raw_durations": [
      3.475815018056892,
      3.888690361054614,
      3.2017154659843072,
      3.8945284680230543,
      3.768834901973605,
      3.599782914039679,
      3.6151382559910417,
      3.629949728026986,
      3.372243940946646,
      3.6117295830044895
    ],
    "uuid": "0a841c9c-ecd9-4c84-bb7d-1d2fc18e4619"
  },
  "anthropic_fast": {
    "result": "#include <stdio.h>\n#include <string.h>\n\nint findCommonPrefix(char *str1, char *str2)\n{\n    int i = 0;\n    while (str1[i] == str2[i] && str1[i] != '\\0' && str2[i] != '\\0')\n        i++; \n    return i;\n}\n\nvoid longestCommonPrefix(char *str[], int size)\n{\n    if (size == 0)\n        return;\n        \n    int len = findCommon",
    "duration": 1.712263982044533,
    "result_length": 320,
    "average_duration": 1.7428564166999423,
    "raw_durations": [
      1.712263982044533,
      1.4402878729160875,
      1.4199085410218686,
      2.3782435869798064,
      1.4264697519829497,
      1.4498882730258629,
      1.7418227350572124,
      1.4465984749840572,
      1.4766894170315936,
      2.9363915319554508
    ],
    "uuid": "1f4ed35d-49ce-4d67-b723-9d910beddd4e"
  },
  "vertex_combined": {
    "result": "def find_largest_common_prefix(strings):\n  \"\"\"\n  Finds the largest common prefix among a list of strings.\n\n  Args:\n    strings: A list of strings.\n\n  Returns:\n    The largest common prefix among the strings.\n  \"\"\"\n\n  # Get the length of the shortest string.\n  shortest_string = min(strings, key=len)\n  shortest_length = len(shortest_string)\n\n  # Iterate over the strings, starting from the beginning.\n  for i in range(shortest_length):\n    # Check if the first character of each string is the same.\n    if strings[0][i] != strings[1][i]:\n      # If not, the common prefix is shorter than `i`.\n      return shortest_string[:i]\n\n  # The common prefix is the entire shortest string.\n  return shortest_string\n",
    "duration": 3.922461614012718,
    "result_length": 705,
    "average_duration": 3.885595174599439,
    "raw_durations": [
      3.922461614012718,
      3.930881695006974,
      3.9152264279546216,
      3.831263288971968,
      3.828768717008643,
      3.8546327889198437,
      3.941044030012563,
      3.9022595819551498,
      3.9021281100576743,
      3.8272854920942336
    ],
    "uuid": "d62db76a-4862-49f4-9f16-db7a8389e524"
  },
  "vertex_code_bison": {
    "result": "def find_largest_common_prefix(strings):\n  \"\"\"\n  Finds the largest common prefix among a list of strings.\n\n  Args:\n    strings: A list of strings.\n\n  Returns:\n    The largest common prefix among the strings.\n  \"\"\"\n\n  # Get the length of the shortest string.\n  shortest_string = min(strings, key=len)\n  shortest_length = len(shortest_string)\n\n  # Iterate over the strings, starting from the beginning.\n  for i in range(shortest_length):\n    # Check if the first character of each string is the same.\n    if strings[0][i] != strings[1][i]:\n      # If not, the common prefix is shorter than `i`.\n      return shortest_string[:i]\n\n  # The common prefix is the entire shortest string.\n  return shortest_string\n",
    "duration": 3.8628923590295017,
    "result_length": 705,
    "average_duration": 3.842806519812439,
    "raw_durations": [
      3.8628923590295017,
      3.9243651350261644,
      3.8669000749941915,
      3.7894227399956435,
      3.824233229039237,
      3.8599120480939746,
      3.8467360580107197,
      3.776251333998516,
      3.843566368916072,
      3.833785851020366
    ],
    "uuid": "47e20930-a4db-4f5d-a02e-cb6a4c21fff5"
  },
  "vertex_text_bison": {
    "result": "```c\n#include <stdio.h>\n#include <string.h>\n\nint main()\n{\n    int n;\n    scanf(\" %d \", &n);\n    char str[n][100];\n    for (int i = 0; i < n; i++)\n    {\n        scanf(\" %s \", str[i]);\n    }\n    int len = strlen(str[0]);\n    int i, j;\n    for (i = 0; i < len; i++)\n    {\n        for (j = 1; j < n; j++)\n        {\n            if (str[j][i] != str[0][i])\n            {\n                break;\n            }\n        }\n        if (j == n)\n        {\n            printf(\" %c \", str[0][i]);\n        }\n    }\n    return 0;\n}\n```",
    "duration": 2.2811846979893744,
    "result_length": 516,
    "average_duration": 2.3316187364049257,
    "raw_durations": [
      2.2811846979893744,
      2.360499419970438,
      2.3679616519948468,
      2.34697259508539,
      2.2911979029886425,
      2.344576821080409,
      2.3771695499308407,
      2.3816194750834256,
      2.289198571932502,
      2.275806677993387
    ],
    "uuid": "f7aa9da5-2a8d-4db1-b9c5-a777bc8ff935"
  },
  "vertex_gecko": {
    "result": "\n\n#include <bits/stdc++.h>\nusing namespace std;",
    "duration": 1.3951031670439988,
    "result_length": 47,
    "average_duration": 2.290116158197634,
    "raw_durations": [
      1.3951031670439988,
      1.3533044169889763,
      1.3580872910097241,
      10.207342459005304,
      1.4345750829670578,
      1.508932082913816,
      1.493125833105296,
      1.234365624957718,
      1.2709242909913883,
      1.6454013329930604
    ],
    "uuid": "da4aca58-c9e1-4471-acf5-b6ecdc8460f0"
  },
  "user_intention": "Live Test",
  "language": "c",
  "prompt": "Write a program to find the largest common prefix among a list of strings.",
  "gitlab_model": {
    "result": "```python\ndef find_lcp(strings):\n  \"\"\"Finds the longest common prefix among a list of strings.\n\n  Args:",
    "duration": 0.6229762209695764,
    "result_length": 103,
    "average_duration": 0.6238444795017131,
    "uuid": "0a8bcb79-02bd-4d9b-b900-1ae510bb0e7a"
  }
}