{
  "user_intention": "Live Test",
  "language": "c",
  "prompt": "// Implement a function to check if a given string is a valid email address.",
  "anthropic": {
    "result": "// Implement a function to check if a given string is a valid email address.\nint isValidEmail(char *email) {\n    int i, atpos = -1, dotpos = -1;\n    for (i = 0; email[i] != '\\0'; i++) {\n        if (email[i] == '@')\n            atpos = i;\n        if (email[i] == '.')\n            dotpos = i;\n    }\n    if (atpos == -1 || dotpos == -1)\n        return 0;\n    if (atpos > dotpos)\n        return 0",
    "duration": 3.4048240550328046,
    "result_length": 392,
    "avg_duration": 3.695672488195123
  },
  "anthropic_fast": {
    "result": "int isValidEmail(char *email) { \n    // TODO: implement the function\n    return 0;\n}",
    "duration": 0.881011530989781,
    "result_length": 84,
    "avg_duration": 0.8984109927085229
  },
  "vertex_combined": {
    "result": ""
  },
  "vertex_code_bison": {
    "result": ""
  },
  "vertex_text_bison": {
    "result": "int isValidEmail(char *str) {\n        // Check if the string is empty\n        if (str == NULL || strlen(str) == 0) {\n            return 0;\n        }\n\n        // Check if the string contains an '@' character\n        if (strchr(str, '@') == NULL) {\n            return 0;\n        }\n\n        // Check if the string contains a '.' character\n        if (strchr(str, '.') == NULL) {\n            return 0;\n        }\n\n        // Check if the string contains any invalid characters\n        for (int i = 0; i < strlen(str); i++) {\n            if (!isalnum(str[i]) && str[i] != '@' && str[i] != '.') {\n                return 0;\n            }\n        }\n\n        // The string is a valid email address\n        return 1;\n    }",
    "duration": 2.0671590869897045,
    "result_length": 711,
    "avg_duration": 2.0417755445931105
  },
  "vertex_gecko": {
    "result": ""
  },
  "gitlab_model": {
    "result": "```python\ndef is_valid_email(email):\n  \"\"\"\n  Returns True if the given string is a valid email address, False otherwise.",
    "duration": 0.6330973299918696,
    "result_length": 120,
    "avg_duration": 0.6135892281017732
  }
}