{
  "user_intention": "Live Test",
  "language": "c",
  "prompt": "// Create a class for a basic calculator that can perform addition, subtraction, multiplication, and division.",
  "anthropic": {
    "result": "// Create a class for a basic calculator that can perform addition, subtraction, multiplication, and division.\nclass Calculator {\n    public:\n        int add(int a, int b) {\n            return a + b;\n        }\n        \n        int subtract(int a, int b) {\n            return a - b;\n        }\n        \n        int multiply(int a, int b) {\n            return a * b;\n        }\n        \n        int divide(int a, int b) {\n            return a / b;\n        }\n};",
    "duration": 2.8706026900326833,
    "result_length": 456,
    "avg_duration": 2.8337427023099737
  },
  "anthropic_fast": {
    "result": "// calculator.h\n\nclass Calculator {\npublic:\n  int add(int a, int b) {\n    return a + b; \n  }\n  \n  int subtract(int a, int b) {\n    return a - b;\n  }  \n  \n  int multiply(int a, int b) {\n    return a * b;  \n  }\n  \n  float divide(float a, float b) {\n    return a / b;\n  }\n};",
    "duration": 1.337588407972362,
    "result_length": 271,
    "avg_duration": 1.2539356706955005
  },
  "vertex_combined": {
    "result": "class Calculator {\n\n  // This method adds two numbers together.\n  public static int add(int number1, int number2) {\n    return number1 + number2;\n  }\n\n  // This method subtracts one number from another.\n  public static int subtract(int number1, int number2) {\n    return number1 - number2;\n  }\n\n  // This method multiplies two numbers together.\n  public static int multiply(int number1, int number2) {\n    return number1 * number2;\n  }\n\n  // This method divides one number by another.\n  public static int divide(int number1, int number2) {\n    return number1 / number2;\n  }\n}",
    "duration": 3.761996419983916,
    "result_length": 575,
    "avg_duration": 3.7919462137972006
  },
  "vertex_code_bison": {
    "result": "class Calculator {\n\n  // This method adds two numbers together.\n  public static int add(int number1, int number2) {\n    return number1 + number2;\n  }\n\n  // This method subtracts one number from another.\n  public static int subtract(int number1, int number2) {\n    return number1 - number2;\n  }\n\n  // This method multiplies two numbers together.\n  public static int multiply(int number1, int number2) {\n    return number1 * number2;\n  }\n\n  // This method divides one number by another.\n  public static int divide(int number1, int number2) {\n    return number1 / number2;\n  }\n}",
    "duration": 3.7598012150265276,
    "result_length": 575,
    "avg_duration": 3.834129988704808
  },
  "vertex_text_bison": {
    "result": "```c\n#include <stdio.h>\n#include <stdlib.h>\n\n// Define the Calculator class\nclass Calculator {\n    public:\n        // Constructor\n        Calculator() {}\n\n        // Add two numbers\n        int add(int a, int b) {\n            return a + b;\n        }\n\n        // Subtract two numbers\n        int subtract(int a, int b) {\n            return a - b;\n        }\n\n        // Multiply two numbers\n        int multiply(int a, int b) {\n            return a * b;\n        }\n\n        // Divide two numbers\n        int divide(int a, int b) {\n            return a / b;\n        }\n};\n\n// Main function\nint main() {\n    // Create a Calculator object\n    Calculator calculator;\n\n    // Add two numbers\n    int a = 10;\n    int b = 20;\n    int c = calculator.add(a, b);\n    printf(\"10 + 20 = %d\\n\", c);\n\n    // Subtract two numbers\n    c",
    "duration": 2.064607188978698,
    "result_length": 816,
    "avg_duration": 2.066435024695238
  },
  "vertex_gecko": {
    "result": ""
  },
  "gitlab_model": {
    "result": "```python\nclass Calculator:\n\n    def __init__(self):\n        self.result = 0\n\n    def add(self,",
    "duration": 0.6100441989838146,
    "result_length": 95,
    "avg_duration": 0.6162046650948468
  }
}