{
  "user_intention": "Live Test",
  "language": "javascript",
  "prompt": "// Implement a function to check if a given string is a valid email address.",
  "anthropic": {
    "result": "function isValidEmail(email) {\n  var re = /^(([^<>()\\[\\]\\\\.,;:\\s@\"]+(\\.[^<>()\\[\\]\\\\.,;:\\s@\"]+)*)|(\".+\"))@((\\[[0-9]{1,3}\\.[0-9]{1,3}\\.[0-9]{1,3}\\.[0-9]{1,3}\\])|(([a-zA-Z\\-0-9]+\\.)+[a-zA-Z]{2,}))$/;\n  return re.test(email);\n}",
    "duration": 2.9926991389947943,
    "result_length": 223,
    "avg_duration": 2.8654247827013024
  },
  "anthropic_fast": {
    "result": "function validateEmail(email) {\n  const re = /^(([^<>()[\\]\\\\.,;:\\s@\"]+(\\.[^<>()[\\]\\\\.,;:\\s@\"]+)*)|(\".+\"))@((\\[[0-9]{1,3}\\.[0-9]{1,3}\\.[0-9]{1,3}\\.[0-9]{1,3}\\])|(([a-zA-Z\\-0-9]+\\.)+[a-zA-Z]{2,}))$/;",
    "duration": 1.1671866449760273,
    "result_length": 197,
    "avg_duration": 1.2295436619897373
  },
  "vertex_combined": {
    "result": ""
  },
  "vertex_code_bison": {
    "result": ""
  },
  "vertex_text_bison": {
    "result": "const isEmail = (email) => {\n      const regex = /^[a-zA-Z0-9.!#$%&'*+/=?^_`{|}~-]+@[a-zA-Z0-9-]+(?:\\.[a-zA-Z0-9-]+)*$/;\n      return regex.test(email);\n    };",
    "duration": 1.2792987619759515,
    "result_length": 159,
    "avg_duration": 1.2876963629969396
  },
  "vertex_gecko": {
    "result": ""
  },
  "gitlab_model": {
    "result": "```js\nfunction isValidEmail(email) {\n  // A valid email address must have the following format:\n  // [username]@[",
    "duration": 0.5656773319933563,
    "result_length": 113,
    "avg_duration": 0.6132777654973325
  }
}