{
  "anthropic": {
    "result": "// struct Rectangle { int length; int width; };\n\nstruct Rectangle { \n    int length; \n    int width; \n};\n\nint area(struct Rectangle rect) {\n    return rect.length * rect.width; \n}\n\nint perimeter(struct Rectangle rect) {\n    return 2 * (rect.length + rect.width);\n}\n\nint main() {\n    struct Rectangle rect = {10, 5};\n    printf(\"Area: %d\\n\", area(rect));\n    printf(\"Perimeter: %d\\n\", perimeter(rect));\n}",
    "duration": 3.640365222003311,
    "result_length": 403,
    "average_duration": 3.5320018009864724,
    "raw_durations": [
      3.640365222003311,
      3.456630273954943,
      3.2046678479528055,
      3.1923318629851565,
      3.569908477948047,
      4.002058584941551,
      3.255951334023848,
      3.5831679690163583,
      3.4147089449688792,
      4.0002274920698255
    ],
    "uuid": "90a3721b-0408-482e-9310-2bd30c14fe4c"
  },
  "anthropic_fast": {
    "result": "// struct Rectangle { \nint length;  \nint width; \n};",
    "duration": 0.6737614739686251,
    "result_length": 51,
    "average_duration": 0.6347598065040074,
    "raw_durations": [
      0.6737614739686251,
      0.5957581390393898
    ],
    "uuid": "596b955a-8640-47b2-badc-b0b99e5b6548"
  },
  "vertex_combined": {
    "result": "struct Rectangle { int length; int width; };",
    "duration": 3.835309099056758,
    "result_length": 44,
    "average_duration": 3.740858623199165,
    "raw_durations": [
      3.835309099056758,
      3.77465079491958,
      3.789116909960285,
      2.964093761984259,
      3.8227988440776244,
      3.8627697519259527,
      3.7919341640081257,
      3.8787492139963433,
      3.8511726029682904,
      3.83799108909443
    ],
    "uuid": "a1175b8d-20f4-44df-8720-859bba7cd014"
  },
  "vertex_code_bison": {
    "result": "struct Rectangle { int length; int width; };",
    "duration": 3.9265859029255807,
    "result_length": 44,
    "average_duration": 3.876106373174116,
    "raw_durations": [
      3.9265859029255807,
      3.925301978015341,
      3.8205656259087846,
      3.837720373994671,
      3.7951558029744774,
      3.8631797060370445,
      3.84675872605294,
      3.8781458389712498,
      3.9189393549459055,
      3.948710421915166
    ],
    "uuid": "5ca4cdb8-9d87-4f87-bd64-aa24ca2db1ce"
  },
  "vertex_text_bison": {
    "result": "int area(struct Rectangle r) {\n        return r.length * r.width;\n    }",
    "duration": 0.8990551710594445,
    "result_length": 71,
    "average_duration": 0.8717529387096874,
    "raw_durations": [
      0.8990551710594445,
      0.9069619089132175,
      0.9014219160890207,
      0.8371460610069335,
      0.8949685690458864,
      0.8387884349795058,
      0.8420014879666269,
      0.8326646509813145,
      0.8437103140167892,
      0.9208108730381355
    ],
    "uuid": "80e41cb2-0adc-4573-beb3-2ae86a09fd2b"
  },
  "vertex_gecko": {
    "result": "// int main() {\n//     Rectangle rectangle;\n//     rectangle.length = 10;",
    "duration": 1.3500540839741006,
    "result_length": 73,
    "average_duration": 1.4240311210043728,
    "raw_durations": [
      1.3500540839741006,
      1.5778049590298906,
      1.400032875011675,
      1.3928802500013262,
      1.4550811250228435,
      1.4185790420742705,
      1.395716540981084,
      1.2515827500028536,
      1.5885310840094462,
      1.410048499936238
    ],
    "uuid": "d81ad118-376f-464f-84fe-2f213e1217b1"
  },
  "user_intention": "Live Test",
  "language": "c",
  "prompt": "struct Rectangle { int length; int width; };",
  "prompt_type": "completion",
  "gitlab_model": {
    "result": "int main() {\n  Rectangle rect;\n  rect.length = 10;\n  rect.width = 5;\n",
    "duration": 0.6802308099577203,
    "result_length": 69,
    "average_duration": 0.6346116632863413,
    "uuid": "efcdb7f7-8197-48f0-abde-0f1bea426491"
  }
}