{
  "anthropic": {
    "result": "// func isPrime(n int) bool { \n    if n <= 1 { \n        return false \n    }\n    for i := 2; i < n; i++ {\n        if n%i == 0 {\n            return false\n        }\n    }\n    return true\n}",
    "duration": 1.9873131760396063,
    "result_length": 185,
    "average_duration": 1.9589230634854176,
    "raw_durations": [
      1.9873131760396063,
      1.8688408950110897,
      1.8028516600606963,
      2.036921144928783,
      1.8996368150692433,
      1.7014358169399202,
      2.0103958329418674,
      2.427757641999051,
      1.8345618839375675,
      2.0195157679263502
    ],
    "uuid": "6d6e97a7-42bd-4223-853c-3f534d037032"
  },
  "anthropic_fast": {
    "result": "// func isPrime(n int) bool { \n    if n <= 1 { \n        return false\n    }",
    "duration": 0.5703503460390493,
    "result_length": 74,
    "average_duration": 0.630212685407605,
    "raw_durations": [
      0.5703503460390493,
      0.561815952998586,
      0.6027202110271901,
      0.630136028979905,
      0.6356917889788747,
      0.665985930012539,
      0.6143523220671341,
      0.6422417620196939,
      0.6230761359911412,
      0.755756375961937
    ],
    "uuid": "302b5f1c-e3be-4547-9244-a9cc696e0a8d"
  },
  "vertex_combined": {
    "result": "func isPrime(n int) bool {\n    if n <= 1 {\n        return false\n    }\n    for i := 2; i * i <= n; i++ {\n        if n % i == 0 {\n            return false\n        }\n    }\n    return true\n}",
    "duration": 3.5024521179730073,
    "result_length": 186,
    "average_duration": 3.5024521179730073,
    "raw_durations": [
      3.5024521179730073
    ],
    "uuid": "700c8a77-689a-4b87-a1ac-1c3661673702"
  },
  "vertex_code_bison": {
    "result": "func isPrime(n int) bool {\n    if n <= 1 {\n        return false\n    }\n    for i := 2; i * i <= n; i++ {\n        if n % i == 0 {\n            return false\n        }\n    }\n    return true\n}",
    "duration": 3.5982034290209413,
    "result_length": 186,
    "average_duration": 3.5982034290209413,
    "raw_durations": [
      3.5982034290209413
    ],
    "uuid": "eb14b839-16aa-403e-b49a-e18fe31cb043"
  },
  "vertex_text_bison": {
    "result": "func isPrime(n int) bool {\n        if n <= 1 {\n            return false\n        }\n        for i := 2; i*i <= n; i++ {\n            if n%i == 0 {\n                return false\n            }\n        }\n        return true\n    }",
    "duration": 1.1116433839779347,
    "result_length": 222,
    "average_duration": 1.067936308903154,
    "raw_durations": [
      1.1116433839779347,
      1.1091735840309411,
      1.0452682529576123,
      1.0418167470488697,
      1.1081474190577865,
      1.0368539149640128,
      1.0432923960033804,
      1.1161580949556082,
      1.0273687680019066,
      1.0396405280334875
    ],
    "uuid": "ddc1a554-6959-45ab-82ec-76a4b3381115"
  },
  "vertex_gecko": {
    "result": "false } for i := 2; i < n; i++ { if n%i == 0 { return false } } return true }\n\nfunc main() {\n\tfmt.Println(isPrime(10))\n}",
    "duration": 1.4459718329599127,
    "result_length": 120,
    "average_duration": 1.391748512396589,
    "raw_durations": [
      1.4459718329599127,
      1.4114872079808265,
      1.3132780420128256,
      1.4340150409843773,
      1.4357372920494527,
      1.371735458029434,
      1.4217635419918224,
      1.421796957962215,
      1.3853577499976382,
      1.2763419999973848
    ],
    "uuid": "a025e3d4-6258-46f5-a566-8c724f6fc573"
  },
  "user_intention": "Live Test",
  "language": "golang",
  "prompt": "func isPrime(n int) bool { if n <= 1 { return",
  "prompt_type": "completion",
  "gitlab_model": {
    "result": "false } for i := 2; i*i <= n; i++ { if n%i == 0 { return false } } return true }",
    "duration": 0.6333477689768188,
    "result_length": 80,
    "average_duration": 0.6236535890959203,
    "uuid": "571b4f64-7046-4861-b81e-ac78ed802132"
  }
}