{
  "anthropic": {
    "result": "// func largestElement(nums []int) int {\n    largest := 0\n    for _, num := range nums {\n        if num > largest {\n            largest = num\n        }\n    }\n    return largest\n}",
    "duration": 1.7094911499880254,
    "result_length": 178,
    "average_duration": 1.7231218153145165,
    "raw_durations": [
      1.7094911499880254,
      1.6696140200365335,
      1.8973002739949152,
      2.04797817801591,
      1.7001358390552923,
      1.6880888870218769,
      1.540200817049481,
      1.7175822210265324,
      1.6576263039605692,
      1.6032004629960284
    ],
    "uuid": "3783f717-41c4-4b16-881b-39f49df1cf71"
  },
  "anthropic_fast": {
    "result": "",
    "uuid": "66b1392e-4783-4918-aec7-269fc3c6e8c9"
  },
  "vertex_combined": {
    "result": "func largestElement(nums []int) int {\n  largest := nums[0]\n  for _, num := range nums {\n    if num > largest {\n      largest = num\n    }\n  }\n  return largest\n}",
    "duration": 3.900451382040046,
    "result_length": 159,
    "average_duration": 3.764848663192242,
    "raw_durations": [
      3.900451382040046,
      3.8142038049409166,
      3.8422254329780117,
      3.8211428889771923,
      3.9077103870222345,
      3.91950706706848,
      3.8284887549234554,
      2.843319535953924,
      3.8330966159701347,
      3.9383407620480284
    ],
    "uuid": "20b7b20f-78a0-47c3-a017-5500f266a8c6"
  },
  "vertex_code_bison": {
    "result": "func largestElement(nums []int) int {\n  // Initialize the largest element to be the first element in the array.\n  largest := nums[0]\n\n  // Iterate over the remaining elements in the array.\n  for _, num := range nums[1:] {\n    // If the current element is larger than the largest element, update the largest element.\n    if num > largest {\n      largest = num\n    }\n  }\n\n  // Return the largest element.\n  return largest\n}",
    "duration": 2.765562152955681,
    "result_length": 421,
    "average_duration": 3.180616604187526,
    "raw_durations": [
      2.765562152955681,
      2.818356062984094,
      3.9244444749783725,
      2.7824899029219523,
      3.788809339981526,
      2.588313273037784,
      2.7791640129871666,
      3.9347547659417614,
      2.584282697062008,
      3.839989359024912
    ],
    "uuid": "cc80cd4c-d054-4d8f-adcb-7036e17c934a"
  },
  "vertex_text_bison": {
    "result": "func largestElement(nums []int) int {\n        max := nums[0]\n        for i := 1; i < len(nums); i++ {\n            if nums[i] > max {\n                max = nums[i]\n            }\n        }\n        return max\n    }",
    "duration": 1.0779878699686378,
    "result_length": 211,
    "average_duration": 1.0566281810984948,
    "raw_durations": [
      1.0779878699686378,
      0.9703098169993609,
      0.9751009240280837,
      1.0743218030547723,
      0.9832316039828584,
      1.1431892049731687,
      1.0609077430563048,
      1.0753031539497897,
      1.067391203949228,
      1.1385384870227426
    ],
    "uuid": "b4facd44-1545-4306-947c-7ac20ed2eac7"
  },
  "vertex_gecko": {
    "result": "// \tif len(nums) == 0 {\n// \t\treturn 0\n// \t}\n// \tmax := nums[0]",
    "duration": 1.3470770419808105,
    "result_length": 62,
    "average_duration": 1.3885956416954286,
    "raw_durations": [
      1.3470770419808105,
      1.3601572499610484,
      1.4760546250035986,
      1.3863439580891281,
      1.4506852920167148,
      1.3724488340085372,
      1.4807222079252824,
      1.3100680829957128,
      1.3267777499277145,
      1.3756213750457391
    ],
    "uuid": "9220a64c-49d8-4a11-8dde-e6e02faa696e"
  },
  "user_intention": "Live Test",
  "language": "golang",
  "prompt": "func largestElement(nums []int) int {",
  "prompt_type": "completion",
  "gitlab_model": {
    "result": "max := nums[0]\n\tfor _, num := range nums {\n\t\tif num > max {\n\t",
    "duration": 0.6661115029710345,
    "result_length": 61,
    "average_duration": 0.7016848139988724,
    "uuid": "d8b5eb6b-40c7-46d7-84f3-c1877a455fa9"
  }
}