{
  "anthropic": {
    "result": "// function sortNumbers(numbers) {\n    numbers.sort((a, b) => a - b);\n    return numbers; \n}",
    "duration": 2.7613884010352194,
    "result_length": 92,
    "average_duration": 1.9326026149792597,
    "raw_durations": [
      2.7613884010352194,
      1.8575465769972652,
      1.635766546940431,
      1.475708934944123
    ],
    "uuid": "8ce5ae28-b634-4fde-a984-d3fc0dd39241"
  },
  "anthropic_fast": {
    "result": "// function sortNumbers(numbers) { \n  return numbers.sort((a, b) => a - b);\n}",
    "duration": 1.2539441450498998,
    "result_length": 77,
    "average_duration": 1.4987683243933134,
    "raw_durations": [
      1.2539441450498998,
      0.9135026430012658,
      2.945221342961304,
      1.9178847789298743,
      0.6739960350096226,
      0.7524376430083066,
      1.0811042399145663,
      0.7210195939987898,
      0.7961220949655399,
      3.932450727093965
    ],
    "uuid": "d854c2a7-63ed-49b6-bce9-b6feb88483ee"
  },
  "vertex_combined": {
    "result": "function sortNumbers(numbers) {\n  numbers.sort((a, b) => a - b);\n}",
    "duration": 2.7249150229617953,
    "result_length": 66,
    "average_duration": 2.746869416127447,
    "raw_durations": [
      2.7249150229617953,
      2.669415273005143,
      2.6669637840241194,
      2.8367746990406886,
      2.6841989550739527,
      2.703465766971931,
      2.9206313580507413,
      2.7565717700636014,
      2.6806197330588475,
      2.8251377990236506
    ],
    "uuid": "cfd755f4-5b0b-42a0-aba2-fb14c236d07c"
  },
  "vertex_code_bison": {
    "result": "function sortNumbers(numbers) {\n  numbers.sort((a, b) => a - b);\n}",
    "duration": 2.8472113859606907,
    "result_length": 66,
    "average_duration": 2.8319074773811734,
    "raw_durations": [
      2.8472113859606907,
      2.703702306956984,
      2.7735625070054084,
      2.746642917045392,
      2.6715608610538766,
      2.7624465849949047,
      2.759806549991481,
      3.431770760915242,
      2.7738393169129267,
      2.848531582974829
    ],
    "uuid": "ec03b3eb-3d52-486d-9763-57dd02164db6"
  },
  "vertex_text_bison": {
    "result": "function sortNumbers(numbers) {\n        numbers.sort(function(a, b) {\n            return a - b;\n        });\n    }",
    "duration": 0.6506136320531368,
    "result_length": 113,
    "average_duration": 0.6515460280119442,
    "raw_durations": [
      0.6506136320531368,
      0.6531176409916952,
      0.6402740930207074,
      0.6810867129825056,
      0.6780157380271703,
      0.6251897229813039,
      0.6060002710437402,
      0.6019544530427083,
      0.639119899016805,
      0.7400881169596687
    ],
    "uuid": "19782756-0b5a-480e-81e8-702c2f50f5e8"
  },
  "vertex_gecko": {
    "result": "//     numbers.sort((a, b) => a - b);\n//     return numbers;\n// }",
    "duration": 1.496853040996939,
    "result_length": 65,
    "average_duration": 1.3969015000271612,
    "raw_durations": [
      1.496853040996939,
      1.4575838750461116,
      1.345293042017147,
      1.4266971660545096,
      1.3368544169934466,
      1.353202375001274,
      1.4780265000881627,
      1.3803687080508098,
      1.4258959169965237,
      1.2682399590266868
    ],
    "uuid": "b3ef14be-c563-4b17-8093-267d326be1fa"
  },
  "user_intention": "Live Test",
  "language": "javascript",
  "prompt": "function sortNumbers(numbers) {",
  "prompt_type": "completion",
  "gitlab_model": {
    "result": "return numbers.sort((a, b) => a - b);\n}\n\nconsole.log(sortNumbers([1, 2, 3, 4, 5, 6, 7, 8, 9, 10]));",
    "duration": 0.6038183849886991,
    "result_length": 99,
    "average_duration": 0.5819186015010928,
    "uuid": "6ee50889-0c63-4b22-b8c3-d902e7862c43"
  }
}