{
  "anthropic": {
    "result": "// Implement a function to calculate the area of a circle given its radius.\nfunction calculateArea(radius) {\n  return Math.PI * radius * radius;\n}",
    "duration": 1.449649709975347,
    "result_length": 146,
    "average_duration": 1.6724809889099561,
    "raw_durations": [
      1.449649709975347,
      1.6527359850006178,
      1.4966816320084035,
      1.5026482300600037,
      1.7140904610278085,
      1.723432030994445,
      1.6161546820076182,
      1.6102717950707301,
      2.112141934921965,
      1.8470034280326217
    ],
    "uuid": "a5675e98-64fd-4131-85b3-53a4d2284595"
  },
  "anthropic_fast": {
    "result": "function areaOfCircle(radius){\n  return Math.PI * radius * radius; \n}",
    "duration": 0.9003911360632628,
    "result_length": 69,
    "average_duration": 1.6118484035949223,
    "raw_durations": [
      0.9003911360632628,
      4.344215586897917,
      1.017348172958009,
      0.8690515869529918,
      2.5493657819461077,
      0.833542759064585,
      1.206050381064415,
      2.5349604910006747,
      1.1329017389798537,
      0.730656401021406
    ],
    "uuid": "19df1d2a-4d17-4276-a307-18350787d429"
  },
  "vertex_combined": {
    "result": "area = \u03c0 * radius^2",
    "duration": 2.6400423110462725,
    "result_length": 19,
    "average_duration": 2.953862192097586,
    "raw_durations": [
      2.6400423110462725,
      2.8703755609458312,
      2.935588818974793,
      2.6224973080679774,
      3.2570074279792607,
      2.8799122099298984,
      3.0194568369770423,
      2.681768661015667,
      3.86247575096786,
      2.7694970350712538
    ],
    "uuid": "e1b53e94-77bc-432d-bad4-a10513e8e283"
  },
  "vertex_code_bison": {
    "result": "area = \u03c0 * radius^2",
    "duration": 2.309868423966691,
    "result_length": 19,
    "average_duration": 2.995286995812785,
    "raw_durations": [
      2.309868423966691,
      2.9139659800566733,
      3.28523140901234,
      2.9892782559618354,
      3.7986439160304144,
      3.298814760055393,
      3.276710032019764,
      2.4390503600006923,
      2.7532719479640946,
      2.8880348730599508
    ],
    "uuid": "26e6521a-31cd-4515-8ea5-e750742c5ee5"
  },
  "vertex_text_bison": {
    "result": "const areaOfCircle = (radius) => Math.PI * radius * radius;",
    "duration": 0.837105232058093,
    "result_length": 59,
    "average_duration": 0.8325548564898781,
    "raw_durations": [
      0.837105232058093,
      0.753306234953925,
      0.8719263860257342,
      0.8159774569794536,
      0.8660288460087031,
      0.8282869589747861,
      0.9023773788940161,
      0.8449308379786089,
      0.8497755860444158,
      0.7558336469810456
    ],
    "uuid": "cb644626-d564-4876-80ad-7e1f183d82b1"
  },
  "vertex_gecko": {
    "result": "// function areaOfCircle(radius) {\n//   return Math.PI * radius * radius;\n// }",
    "duration": 1.2680301669752225,
    "result_length": 78,
    "average_duration": 1.3829129709047265,
    "raw_durations": [
      1.2680301669752225,
      1.3505389590281993,
      1.326211042003706,
      1.4095094170188531,
      1.5248171250568703,
      1.4990649999817833,
      1.3191342080244794,
      1.3004413329763338,
      1.5361522500170395,
      1.295230207964778
    ],
    "uuid": "5a940902-0430-417d-afd2-144534b15749"
  },
  "user_intention": "Live Test",
  "language": "javascript",
  "prompt": "// Implement a function to calculate the area of a circle given its radius.",
  "prompt_type": "generation",
  "gitlab_model": {
    "result": "function areaOfCircle(radius) {\n  return Math.PI * radius * radius;\n}\n```",
    "duration": 0.6491732609574683,
    "result_length": 73,
    "average_duration": 0.6391297477122861,
    "uuid": "97a99389-a8cf-46e7-bba4-a7b04196f959"
  }
}