{
  "anthropic": {
    "result": "def reverse_string(string):\n    return string[::-1]",
    "duration": 1.063304456998594,
    "result_length": 51,
    "average_duration": 1.0070616256212817,
    "raw_durations": [
      1.063304456998594,
      1.0225206880131736,
      1.298429568996653,
      0.895884147961624,
      1.0552011970430613,
      0.923635337036103,
      1.0143037540838122,
      0.9655090040760115,
      0.9160892399959266,
      0.9157388620078564
    ],
    "uuid": "bea0adf3-f657-4385-aa56-4ceca4584e86"
  },
  "anthropic_fast": {
    "result": "def reverse(s):\n    return s[::-1]",
    "duration": 0.5833717760397121,
    "result_length": 34,
    "average_duration": 0.6205064043053425,
    "raw_durations": [
      0.5833717760397121,
      0.5713689879048616,
      1.192894481937401,
      0.5680626970715821,
      0.5434065560111776,
      0.5502559120068327,
      0.5422648970270529,
      0.5693395610433072,
      0.5388816730119288,
      0.5452175009995699
    ],
    "uuid": "2a07ca44-9fdf-44a4-9b4c-0504f96b5622"
  },
  "vertex_combined": {
    "result": "def reverse_string(string):\n  \"\"\"Reverses a string.\n\n  Args:\n    string: The string to reverse.\n\n  Returns:\n    The reversed string.\n  \"\"\"\n  # Initialize an empty string.\n  reversed_string = \"\"\n\n  # Iterate over the original string from the end to the beginning.\n  for character in string[::-1]:\n    # Append the character to the empty string.\n    reversed_string += character\n\n  # Return the empty string.\n  return reversed_string\n",
    "duration": 3.4365666339872405,
    "result_length": 432,
    "average_duration": 3.3001657090266234,
    "raw_durations": [
      3.4365666339872405,
      3.3442352330312133,
      3.323740246007219,
      3.382646078011021,
      3.1144438929622993,
      3.253635051078163,
      3.234634052030742,
      3.2499956390820444,
      3.3579109490383416,
      3.303849315037951
    ],
    "uuid": "03ab3c0b-08c4-448e-b94e-24e6dc913e75"
  },
  "vertex_code_bison": {
    "result": "def reverse_string(string):\n  \"\"\"Reverses a string.\n\n  Args:\n    string: The string to reverse.\n\n  Returns:\n    The reversed string.\n  \"\"\"\n  new_string = \"\"\n  for character in string[::-1]:\n    new_string += character\n  return new_string\n",
    "duration": 3.264180112979375,
    "result_length": 238,
    "average_duration": 3.273780511820223,
    "raw_durations": [
      3.264180112979375,
      3.163939952966757,
      3.2877043440239504,
      3.4959551820065826,
      3.17616749193985,
      3.3467686540680006,
      3.1740309400483966,
      3.337351546040736,
      3.376709112082608,
      3.1149977820459753
    ],
    "uuid": "acf2c81a-5fa0-4b89-8b95-b527c684cf20"
  },
  "vertex_text_bison": {
    "result": "def reverse(str): \n        return str[::-1]",
    "duration": 0.9649684480391443,
    "result_length": 43,
    "average_duration": 1.0290270720026455,
    "raw_durations": [
      0.9649684480391443,
      1.0454331829678267,
      1.0719354780158028,
      1.0628794990479946,
      1.1088677429361269,
      0.9629275639308617,
      1.0644631059840322,
      0.9922267280053347,
      0.9734986970433965,
      1.0430702740559354
    ],
    "uuid": "cb24306e-34fc-45f9-9072-5116c2dde6da"
  },
  "vertex_gecko": {
    "result": "def reverse_string(string):\n    return string[::-1]",
    "duration": 1.399424250004813,
    "result_length": 51,
    "average_duration": 1.482755070796702,
    "raw_durations": [
      1.399424250004813,
      1.4874435409437865,
      1.5165900419233367,
      1.3817431670613587,
      1.7017828330863267,
      1.4885654160752892,
      1.3611312500433996,
      1.5199235419277102,
      1.4011053330032155,
      1.5698413338977844
    ],
    "uuid": "27a7e6b0-ceb2-44ee-b59a-4f4986b8a4dc"
  },
  "user_intention": "Live Test",
  "language": "python",
  "prompt": "# Write a function to reverse a string.",
  "prompt_type": "generation",
  "gitlab_model": {
    "result": "def reverse_string(str1):\n  str2 = \"\"\n  for i in range(len(str1) - 1",
    "duration": 0.5956498520099558,
    "result_length": 68,
    "average_duration": 0.796099854199565,
    "uuid": "eff3f633-f922-4537-8b39-73d4fb679283"
  }
}