{
  "anthropic": {
    "result": "def largest(nums):\n    largest_num = nums[0]\n    for num in nums:\n        if num > largest_num:\n            largest_num = num\n    return largest_num",
    "duration": 1.6120255410205573,
    "result_length": 148,
    "average_duration": 1.7324030867195688,
    "raw_durations": [
      1.6120255410205573,
      1.7926531509729102,
      2.341580012929626,
      1.6494652800029144,
      1.6019253270933405,
      1.5414494520518929,
      1.6731139631010592,
      1.6422641730168834,
      1.6430923040024936,
      1.826461663004011
    ],
    "uuid": "2745434b-7f5f-4bb2-8ef8-51c08ca88579"
  },
  "anthropic_fast": {
    "result": "def find_largest(list): \n    largest = list[0]  \n    for i in list:  \n        if i > largest:  \n            largest = i  \n    return largest",
    "duration": 0.76060061797034,
    "result_length": 140,
    "average_duration": 0.8028928830171935,
    "raw_durations": [
      0.76060061797034,
      0.7774005079409108,
      0.7575355080189183,
      0.7825666139833629,
      0.8099151731003076,
      0.7685129890451208,
      0.887093632016331,
      0.731451225001365,
      0.7656386280432343,
      0.9882139350520447
    ],
    "uuid": "6b79f529-8816-4234-8d64-5af5bce8d217"
  },
  "vertex_combined": {
    "result": "def find_largest_element(list):\n  \"\"\"\n  This function finds the largest element in a list.\n\n  Args:\n    list: The list to search.\n\n  Returns:\n    The largest element in the list.\n  \"\"\"\n\n  # Initialize the largest element to the first element in the list.\n  largest_element = list[0]\n\n  # Iterate over the remaining elements in the list.\n  for element in list[1:]:\n    # If the current element is larger than the largest element, update the largest element.\n    if element > largest_element:\n      largest_element = element\n\n  # Return the largest element.\n  return largest_element",
    "duration": 3.9164312530774623,
    "result_length": 580,
    "average_duration": 3.770896481140517,
    "raw_durations": [
      3.9164312530774623,
      3.929194563999772,
      3.438928924035281,
      3.7706737089902163,
      3.8571286860387772,
      3.784011141047813,
      3.8354143630713224,
      3.3935559620149434,
      3.8660600400762632,
      3.917566169053316
    ],
    "uuid": "2ec6179c-6a50-434c-b616-0c6e60c82f8d"
  },
  "vertex_code_bison": {
    "result": "def find_largest_element(list):\n  \"\"\"\n  This function finds the largest element in a list.\n\n  Args:\n    list: The list to search.\n\n  Returns:\n    The largest element in the list.\n  \"\"\"\n\n  # Initialize the largest element to the first element in the list.\n  largest_element = list[0]\n\n  # Iterate over the rest of the elements in the list.\n  for element in list[1:]:\n    # If the current element is larger than the largest element, update the largest element.\n    if element > largest_element:\n      largest_element = element\n\n  # Return the largest element.\n  return largest_element",
    "duration": 3.8418981350259855,
    "result_length": 582,
    "average_duration": 3.7501329693128356,
    "raw_durations": [
      3.8418981350259855,
      3.9360101060010493,
      3.8625435139983892,
      3.523228654055856,
      3.423829944920726,
      3.7844884910155088,
      3.5773670739727095,
      3.845876345061697,
      3.926354932016693,
      3.77973249705974
    ],
    "uuid": "8adbc912-9a1f-473c-a416-f4126ecaa60a"
  },
  "vertex_text_bison": {
    "result": "def find_largest(nums):\n        largest = nums[0]\n        for num in nums:\n            if num > largest:\n                largest = num\n        return largest",
    "duration": 0.9381837319815531,
    "result_length": 157,
    "average_duration": 1.0940566008794121,
    "raw_durations": [
      0.9381837319815531,
      1.265704896999523,
      1.2492929729633033,
      0.9510756740346551,
      1.2415742299053818,
      0.9359464310109615,
      0.936876337043941,
      1.238128060940653,
      1.2417474219109863,
      0.9420362520031631
    ],
    "uuid": "ffc2fa45-2623-428d-9253-8db3ad8c916d"
  },
  "vertex_gecko": {
    "result": "def largest(list):\n    return max(list)",
    "duration": 1.4591589169576764,
    "result_length": 39,
    "average_duration": 1.4660634333034976,
    "raw_durations": [
      1.4591589169576764,
      1.4890315000666305,
      1.5922929169610143,
      1.4907680409960449,
      1.4892877079546452,
      1.3625141250668094,
      1.4144738339819014,
      1.4494557920843363,
      1.4245267909718677,
      1.4891247079940513
    ],
    "uuid": "2b8aa7db-82f6-4921-bc9e-4d847ed47a72"
  },
  "user_intention": "Live Test",
  "language": "python",
  "prompt": "# Implement a function to find the largest element in a list.",
  "prompt_type": "generation",
  "gitlab_model": {
    "result": "def find_largest_element(list1):\n  largest = list1[0]\n  for i in range(1, len",
    "duration": 0.6143893859989475,
    "result_length": 77,
    "average_duration": 0.6534870844043326,
    "uuid": "4fb881af-0a39-4676-8d38-b8498b8cf013"
  }
}