{
  "user_intention": "Live Test",
  "language": "javascript",
  "prompt": "class Car { constructor(make, model, year) {",
  "anthropic": {
    "result": "class Car { \n    constructor(make, model, year) {\n        this.make = make;\n        this.model = model;\n        this.year = year;\n    }\n    honk() {\n        console.log('BEEP BEEP!');\n    }\n    drive() {\n        console.log('VROOM!');\n    }\n}",
    "duration": 2.7622145310015185,
    "result_length": 242
  },
  "anthropic_fast": {
    "result": "class Car { \n  constructor(make, model, year) {\n    this.make = make;\n    this.model = model;\n    this.year = year;\n  }\n}",
    "duration": 0.7087736319954274,
    "result_length": 121,
    "avg_duration": 0.8256466418024502
  },
  "vertex_combined": {
    "result": ""
  },
  "vertex_code_bison": {
    "result": ""
  },
  "vertex_text_bison": {
    "result": "this.make = make;\n     this.model = model;\n     this.year = year;\n    }\n    getMake() {\n     return this.make;\n    }\n    getModel() {\n     return this.model;\n    }\n    getYear() {\n     return this.year;\n    }\n    toString() {\n     return `${this.make} ${this.model} ${this.year}`;\n    }\n   }",
    "duration": 1.055302610999206,
    "result_length": 291,
    "avg_duration": 1.1606705393991432
  },
  "vertex_gecko": {
    "result": ""
  },
  "gitlab_model": {
    "result": "\n    this.make = make;\n    this.model = model;\n    this.year = year;\n  }",
    "duration": 0.582677821003017,
    "result_length": 72,
    "avg_duration": 0.5781905912983347
  }
}