{
  "user_intention": "Live Test",
  "language": "javascript",
  "prompt": "class Person { constructor(name, age, address) {",
  "anthropic": {
    "result": "class Person { \n    constructor(name, age, address) {\n        this.name = name;\n        this.age = age;\n        this.address = address;\n    }\n}",
    "duration": 1.621064535996993,
    "result_length": 143,
    "avg_duration": 1.7503160336040309
  },
  "anthropic_fast": {
    "result": "    class Person { \n      constructor(name, age, address) {\n         this.name = name;  \n         this.age = age;\n         this.address = address;\n      }\n    }",
    "duration": 0.7019679520017235,
    "result_length": 160,
    "avg_duration": 1.0759769497002707
  },
  "vertex_combined": {
    "result": "constructor(name, age, address) {\n  this.name = name;\n  this.age = age;\n  this.address = address;\n}",
    "duration": 1.8942078920081258,
    "result_length": 99
  },
  "vertex_code_bison": {
    "result": "constructor(name, age, address) {\n  this.name = name;\n  this.age = age;\n  this.address = address;\n}",
    "duration": 2.258050162010477,
    "result_length": 99,
    "avg_duration": 2.492657644598512
  },
  "vertex_text_bison": {
    "result": "this.name = name;\n     this.age = age;\n     this.address = address;\n   }\n }",
    "duration": 1.3100933719979366,
    "result_length": 75,
    "avg_duration": 0.9439876276010182
  },
  "vertex_gecko": {
    "result": ""
  },
  "gitlab_model": {
    "result": "\n    this.name = name;\n    this.age = age;\n    this.address = address;\n  }",
    "duration": 0.5693890870024916,
    "result_length": 74,
    "avg_duration": 0.6521382432023529
  }
}