{
  "anthropic": {
    "result": "// class Car { \nconstructor(make, model, year) {\n    this.make = make;\n    this.model = model;\n    this.year = year;\n}\n\nhonk() {\n    console.log('BEEP BEEP!');\n}\n\ngetMake() {\n    return this.make; \n}\n\ngetModel() {\n    return this.model;\n}\n\ngetYear() {\n    return this.year;\n}\n}",
    "duration": 3.0746780639747158,
    "result_length": 277,
    "average_duration": 3.248303666544546,
    "raw_durations": [
      3.0746780639747158,
      3.3096288569504395,
      3.281714209006168,
      2.8204427580349147,
      3.129587856004946,
      3.8064753719372675,
      3.3155985499033704
    ],
    "uuid": "2187cd51-504e-4d08-a9f9-42347d92a770"
  },
  "anthropic_fast": {
    "result": "// class Car { \nconstructor(make, model, year) {\n       this.make = make;\n       this.model = model;\n       this.year = year;\n    }\n}",
    "duration": 0.8034091119188815,
    "result_length": 133,
    "average_duration": 1.1321776338591008,
    "raw_durations": [
      0.8034091119188815,
      0.8674966630060226,
      0.7782331989146769,
      2.1434342459542677,
      0.8036840270506218,
      1.0638159579830244,
      1.807792391977273,
      0.7895554740680382
    ],
    "uuid": "df10a9f7-3c8e-4c4d-a8d5-7d344ea28d27"
  },
  "vertex_combined": {
    "result": "constructor(make, model, year) {\n  this.make = make;\n  this.model = model;\n  this.year = year;\n}",
    "duration": 2.9544383209431544,
    "result_length": 96,
    "average_duration": 2.9544383209431544,
    "raw_durations": [
      2.9544383209431544
    ],
    "uuid": "d60c94b8-e90d-42cc-8b99-d8cf35ca9523"
  },
  "vertex_code_bison": {
    "result": "constructor(make, model, year) {\n  this.make = make;\n  this.model = model;\n  this.year = year;\n}",
    "duration": 2.8448426719987765,
    "result_length": 96,
    "average_duration": 3.4059972280325987,
    "raw_durations": [
      2.8448426719987765,
      3.616644546040334,
      3.7565044660586864
    ],
    "uuid": "aff19ab2-c33a-4b01-9570-8c6be6ea8682"
  },
  "vertex_text_bison": {
    "result": "//   this.make = make;\n    //   this.model = model;\n    //   this.year = year;\n    // }\n    // }",
    "duration": 0.9354384749894962,
    "result_length": 96,
    "average_duration": 0.9199333322816529,
    "raw_durations": [
      0.9354384749894962,
      0.8483606739901006,
      0.943295789998956,
      0.9241083168890327,
      0.9445635189767927,
      0.9306500980164856,
      0.9311723380815238,
      0.9263338119490072,
      0.8824900159379467,
      0.9329202839871868
    ],
    "uuid": "3a33ff49-6d6c-4b10-898c-3d0f6d6663a0"
  },
  "vertex_gecko": {
    "result": "\n//     this.make = make;\n//     this.model = model;\n//     this.year = year;\n// }",
    "duration": 1.3399185419548303,
    "result_length": 82,
    "average_duration": 1.3209750082809477,
    "raw_durations": [
      1.3399185419548303,
      1.303557917010039,
      1.266317458008416,
      1.309864915907383,
      1.4048615420470014,
      1.2789059999631718,
      1.2704027079744264,
      1.3049611249007285,
      1.3890294580487534,
      1.3419304169947281
    ],
    "uuid": "03536773-558a-4f8a-ab1c-8477b3c73641"
  },
  "user_intention": "Live Test",
  "language": "javascript",
  "prompt": "class Car { constructor(make, model, year) {",
  "gitlab_model": {
    "result": "\n    this.make = make;\n    this.model = model;\n    this.year = year;\n  }",
    "duration": 0.582677821003017,
    "result_length": 72,
    "average_duration": 0.5781905912983347,
    "uuid": "f00e8a94-27ad-40a9-82b1-81b9b4f17e75"
  }
}