{
  "anthropic": {
    "result": "// function isLeapYear(year) {\n    if (year % 400 === 0) {\n        return true;\n    } else if (year % 100 === 0) {\n        return false;\n    } else if (year % 4 === 0) {\n        return true;\n    } else {\n        return false;\n    }\n}",
    "duration": 1.8077687879558653,
    "result_length": 233,
    "average_duration": 1.8077687879558653,
    "raw_durations": [
      1.8077687879558653
    ],
    "uuid": "14bfd04c-9c36-4a2d-97d1-769cc24a8ed9"
  },
  "anthropic_fast": {
    "result": "// function isLeapYear(year) { \nreturn (year % 4 == 0 && year % 100 != 0) || year % 400 == 0;    \n}",
    "duration": 1.720991735928692,
    "result_length": 99,
    "average_duration": 1.9632476226077415,
    "raw_durations": [
      1.720991735928692,
      1.5141059199813753,
      0.842295681941323,
      0.8839217500062659,
      1.7185358260758221,
      1.265996023081243,
      1.6547048731008545,
      5.255716621992178,
      0.9347005779854953,
      3.8415072159841657
    ],
    "uuid": "f3efc640-4c75-4936-a604-ff1f788cce95"
  },
  "vertex_combined": {
    "result": "function isLeapYear(year) {\n  // Check if the year is divisible by 4.\n  if (year % 4 !== 0) {\n    return false;\n  }\n\n  // Check if the year is divisible by 100.\n  if (year % 100 === 0) {\n    // Check if the year is divisible by 400.\n    if (year % 400 === 0) {\n      return true;\n    } else {\n      return false;\n    }\n  } else {\n    return true;\n  }\n}",
    "duration": 2.6132488229777664,
    "result_length": 352,
    "average_duration": 2.6043810762115753,
    "raw_durations": [
      2.6132488229777664,
      2.5291404720628634,
      2.5898444060003385,
      2.5858529850374907,
      2.5881941840052605,
      2.6515149240149185,
      2.6633423949824646,
      2.634790119016543,
      2.5792942290427163,
      2.6085882249753922
    ],
    "uuid": "67e383fd-367f-4478-ab6e-d9256b2dd545"
  },
  "vertex_code_bison": {
    "result": "function isLeapYear(year) {\n  // Check if the year is divisible by 4.\n  if (year % 4 !== 0) {\n    return false;\n  }\n\n  // Check if the year is divisible by 100.\n  if (year % 100 === 0) {\n    // Check if the year is divisible by 400.\n    if (year % 400 === 0) {\n      return true;\n    } else {\n      return false;\n    }\n  } else {\n    return true;\n  }\n}",
    "duration": 2.595744393998757,
    "result_length": 352,
    "average_duration": 2.6360535287763924,
    "raw_durations": [
      2.595744393998757,
      2.656429731985554,
      2.6135880739893764,
      2.6865924960002303,
      2.6680485459510237,
      2.5704474539961666,
      2.6876163749257103,
      2.5234487539855763,
      2.666006525978446,
      2.6926129369530827
    ],
    "uuid": "2b103141-41b6-481f-b120-dfdf27363321"
  },
  "vertex_text_bison": {
    "result": "function isLeapYear(year) {\n        return (year % 4 == 0 && year % 100 != 0) || (year % 400 == 0);\n    }",
    "duration": 1.1988040980650112,
    "result_length": 105,
    "average_duration": 1.22663151799934,
    "raw_durations": [
      1.1988040980650112,
      1.2592587290564552,
      1.1818275869591162,
      1.2510172229958698,
      1.1985861860448495,
      1.2950369010213763,
      1.3123877679463476,
      1.2009643299970776,
      1.1757726519135758,
      1.1926597059937194
    ],
    "uuid": "05174808-abb2-4a6f-b55f-9160a2d70772"
  },
  "vertex_gecko": {
    "result": "\n//   if (year % 4 === 0) {\n//     if (year % 100 === 0) {\n//       if (year % 400 === 0) {\n//         return true;",
    "duration": 1.4521156250266358,
    "result_length": 115,
    "average_duration": 1.4002063581952826,
    "raw_durations": [
      1.4521156250266358,
      1.469755458063446,
      1.3782019999343902,
      1.4707958749495447,
      1.3748310829978436,
      1.3062774589052424,
      1.3364198330091313,
      1.3800003749784082,
      1.4673665830632672,
      1.3662992910249159
    ],
    "uuid": "c80eef95-de39-4f89-b14a-2bb9b19c2f54"
  },
  "user_intention": "Live Test",
  "language": "javascript",
  "prompt": "function isLeapYear(year) {",
  "gitlab_model": {
    "result": "\n  return (year % 4 === 0 && year % 100 !== 0) || year % 400 === 0;\n}\n\nfunction getDaysInMonth(month, year) {",
    "duration": 0.5561619649961358,
    "result_length": 109,
    "average_duration": 0.6076844903975143,
    "uuid": "514c05be-16b6-44f2-8bbb-e19ec1ca3660"
  }
}