{
  "anthropic": {
    "result": "    function findLargestCommonPrefix(strings) {\n        if (strings.length === 0) return \"\";\n        let prefix = strings[0];\n        for (let i = 1; i < strings.length; i++) {\n            while (strings[i].indexOf(prefix) !== 0) {\n                prefix = prefix.substring(0, prefix.length - 1);\n                if (prefix === \"\") return \"\";\n            }\n        }\n        return prefix;\n    }",
    "duration": 2.742374070105143,
    "result_length": 395,
    "average_duration": 2.9315423343097793,
    "raw_durations": [
      2.742374070105143,
      3.3349334170343354,
      2.7778499339474365,
      2.668960173963569,
      3.0020821830257773,
      2.459662597044371,
      3.2676129559986293,
      3.10129338898696,
      2.511642275028862,
      3.4490123479627073
    ],
    "uuid": "3f3d1423-9c51-4652-974b-312169b9f007"
  },
  "anthropic_fast": {
    "result": "// function findLargestCommonPrefix(strings) { \n   let prefix = strings[0];  \n   for (let i = 1; i < strings.length; i++) {      \n       while (strings[i].indexOf(prefix) != 0){\n           prefix = prefix.substring(0, prefix.length - 1);\n       }\n   }\n   return prefix;\n}",
    "duration": 1.908393942983821,
    "result_length": 271,
    "average_duration": 1.5547897541093536,
    "raw_durations": [
      1.908393942983821,
      2.2205452729249373,
      1.338347400072962,
      1.4250672940397635,
      1.3371401679469272,
      1.6714101849356666,
      1.3767469640588388,
      1.5195717189926654,
      1.195884841028601
    ],
    "uuid": "763d883e-e45f-4712-bcf8-d64fc92d8016"
  },
  "vertex_combined": {
    "result": "function findLargestCommonPrefix(strings) {\n  // Check if the input is valid.\n  if (strings.length === 0) {\n    return \"\";\n  }\n\n  // Find the shortest string in the array.\n  let shortestString = strings[0];\n  for (let i = 1; i < strings.length; i++) {\n    if (strings[i].length < shortestString.length) {\n      shortestString = strings[i];\n    }\n  }\n\n  // Iterate over the characters in the shortest string.\n  let i = 0;\n  while (i < shortestString.length) {\n    // Check if the current character is the same in all strings.\n    let isSame = true;\n    for (let j = 0; j < strings.length; j++) {\n      if (strings[j].charAt(i) !== shortestString.charAt(i)) {\n        isSame = false;\n        break;\n      }\n    }\n\n    // If the current character is the same in",
    "duration": 3.8322977219941095,
    "result_length": 758,
    "average_duration": 3.8822363299084826,
    "raw_durations": [
      3.8322977219941095,
      3.8639009279431775,
      3.8703256309963763,
      3.936017152038403,
      3.8521525219548494,
      3.950721671106294,
      3.852241621003486,
      3.928845094051212,
      3.910228836000897,
      3.8256321219960228
    ],
    "uuid": "a46aa7cb-198c-4446-b7d2-2cc373c7fd35"
  },
  "vertex_code_bison": {
    "result": "function findLargestCommonPrefix(strings) {\n  // Base case: if there is only one string, return it.\n  if (strings.length == 1) {\n    return strings[0];\n  }\n\n  // Find the first character that is not the same in all strings.\n  for (var i = 0; i < strings[0].length; i++) {\n    if (strings[0][i] != strings[1][i]) {\n      return strings[0].substring(0, i);\n    }\n  }\n\n  // The prefixes are the same up to the end of the first string.\n  return strings[0];\n}",
    "duration": 3.9480913190636784,
    "result_length": 454,
    "average_duration": 3.8938571529230104,
    "raw_durations": [
      3.9480913190636784,
      3.8255338619928807,
      3.8670730909798294,
      3.925818855059333,
      3.859914363012649,
      3.950109642930329,
      3.919451893074438,
      3.879910968011245,
      3.915501058101654,
      3.847166477004066
    ],
    "uuid": "eaeb95cd-fc24-4657-a622-88bf4d19cf23"
  },
  "vertex_text_bison": {
    "result": "function findLargestCommonPrefix(strings) {\n      var shortest = Math.min(...strings.length);\n      var longest = Math.max(...strings.length);\n      var common = \"\";\n      for (var i = 0; i < shortest; i++) {\n        if (strings[0][i] === strings[longest - 1][i]) {\n          common += strings[0][i];\n        } else {\n          break;\n        }\n      }\n      return common;\n    }",
    "duration": 1.471652757958509,
    "result_length": 379,
    "average_duration": 1.4637860185001046,
    "raw_durations": [
      1.471652757958509,
      1.490834373049438,
      1.4590325020253658,
      1.4692489570006728,
      1.4671654700068757,
      1.4820246190065518,
      1.421960164909251,
      1.4844702719710767,
      1.4408635550644249,
      1.4506075140088797
    ],
    "uuid": "4b3fc3bb-cb50-4a4e-a960-348200f847b5"
  },
  "vertex_gecko": {
    "result": "\n//   if (strings.length === 0) {\n//     return '';\n//   }\n//   const firstString = strings[0];",
    "duration": 1.3248726249439642,
    "result_length": 95,
    "average_duration": 1.3873491376987659,
    "raw_durations": [
      1.3248726249439642,
      1.500187375000678,
      1.4528954169945791,
      1.39592108305078,
      1.3787200420629233,
      1.3705125420819968,
      1.3668540839571506,
      1.3734764999244362,
      1.3545057089067996,
      1.3555460000643507
    ],
    "uuid": "31901e40-54c9-4511-b34c-3a9708071efe"
  },
  "user_intention": "Live Test",
  "language": "javascript",
  "prompt": "function findLargestCommonPrefix(strings) {",
  "gitlab_model": {
    "result": "\n  if (strings.length === 0) return '';\n  if (strings.length === 1) return strings[0];\n\n  const [firstString, ...rest] = strings;",
    "duration": 0.5708816209953511,
    "result_length": 129,
    "average_duration": 0.6055448401995818,
    "uuid": "8eccae64-76eb-444c-8e37-2ed7d7402e50"
  }
}