{
  "anthropic": {
    "result": "// function isEven(number) {\n    if (number % 2 === 0) {\n        return true;\n    } else {\n        return false;\n    }\n}",
    "duration": 1.4526050429558381,
    "result_length": 120,
    "average_duration": 1.4575823907507583,
    "raw_durations": [
      1.4526050429558381,
      1.3687307280488312,
      1.521024546935223,
      1.5257662560325116,
      1.5344845110084862,
      1.511372331995517,
      1.2315155629767105,
      1.5151601460529491
    ],
    "uuid": "0481c607-6a8a-4c64-977d-89a926195d28"
  },
  "anthropic_fast": {
    "result": "// function isEven(number) { \nreturn number % 2 === 0;  \n}",
    "duration": 0.6044777130009606,
    "result_length": 58,
    "average_duration": 0.7964337205747143,
    "raw_durations": [
      0.6044777130009606,
      0.8014023769646883,
      1.119634875911288,
      1.4320548420073465,
      0.7237447169609368,
      0.762949016992934,
      0.5632044349331409,
      0.6514377290150151,
      0.7014814669964835,
      0.6039500329643488
    ],
    "uuid": "68bf6d90-786e-42d3-8f0a-7e917cdadf44"
  },
  "vertex_combined": {
    "result": "function isEven(number) {\n  return number % 2 == 0;\n}",
    "duration": 2.314462588983588,
    "result_length": 53,
    "average_duration": 2.1068257290986367,
    "raw_durations": [
      2.314462588983588,
      2.0471242419444025,
      1.9687016379320994,
      2.321808265056461,
      2.046794864931144,
      1.9855530250351876,
      2.380144819035195,
      2.0848511790391058,
      1.991143160033971,
      1.9276735089952126
    ],
    "uuid": "c9d8ddc2-6371-48f6-840d-d5159f6cc44b"
  },
  "vertex_code_bison": {
    "result": "function isEven(number) {\n  return number % 2 == 0;\n}",
    "duration": 1.9508791039697826,
    "result_length": 53,
    "average_duration": 2.0705510637257247,
    "raw_durations": [
      1.9508791039697826,
      1.9555573670659214,
      2.3676009729970247,
      1.9662344860844314,
      1.9510895949788392,
      2.379229356069118,
      2.0421805110527202,
      1.9838759120320901,
      2.0398492900421843,
      2.0690140429651365
    ],
    "uuid": "74f4ae59-bbd4-4bf3-9e93-8d23aa1186d2"
  },
  "vertex_text_bison": {
    "result": "function isEven(number) {\n        return number % 2 === 0;\n    }",
    "duration": 0.5818510740064085,
    "result_length": 64,
    "average_duration": 0.5691422753036022,
    "raw_durations": [
      0.5818510740064085,
      0.5419916140381247,
      0.5834574949694797,
      0.5409616939723492,
      0.5779246320016682,
      0.5690686000743881,
      0.5755866890540347,
      0.5686929819639772,
      0.569951553014107,
      0.5819364199414849
    ],
    "uuid": "2e495009-f456-4224-b128-fc4eb599a412"
  },
  "vertex_gecko": {
    "result": "\n//   return number % 2 === 0;\n// }\n\n// console.log(isEven(10));",
    "duration": 1.3352190000005066,
    "result_length": 64,
    "average_duration": 1.365630608308129,
    "raw_durations": [
      1.3352190000005066,
      1.4377267500385642,
      1.3727079579839483,
      1.3789890420157462,
      1.3776726250071079,
      1.3380195409990847,
      1.4354074590373784,
      1.3411475829780102,
      1.3761262090411037,
      1.2632899159798399
    ],
    "uuid": "ec36f371-f224-472e-9751-cee2142cf1a1"
  },
  "user_intention": "Live Test",
  "language": "javascript",
  "prompt": "function isEven(number) {",
  "gitlab_model": {
    "result": "\n  return number % 2 === 0;\n}\n\nfunction isOdd(number) {",
    "duration": 0.601974536999478,
    "result_length": 55,
    "average_duration": 0.5920655434005312,
    "uuid": "0faf50fa-7b8a-40c3-9b69-837c5ebe28de"
  }
}