{
  "user_intention": "Live Test",
  "language": "python",
  "prompt": "# Create a dictionary that maps country names to their capital cities.",
  "anthropic": {
    "result": "# Create a dictionary that maps country names to their capital cities.\ncountry_capitals = {\n    'United States': 'Washington, D.C.',\n    'Canada': 'Ottawa', \n    'Italy': 'Rome',\n    'Japan': 'Tokyo',\n    'South Korea': 'Seoul',\n    'China': 'Beijing',\n    'Australia': 'Canberra',\n    'India': 'New Delhi' \n}",
    "duration": 3.0549624980194494,
    "result_length": 309,
    "avg_duration": 2.6893129825999496
  },
  "anthropic_fast": {
    "result": "# Create a dictionary that maps country names to their capital cities.\n\ncapitals = {\n    \"France\" : \"Paris\",  \n    \"Germany\" : \"Berlin\",\n    \"Japan\" : \"Tokyo\"\n}",
    "duration": 0.7841378320008516,
    "result_length": 160,
    "avg_duration": 0.8131788269034587
  },
  "vertex_combined": {
    "result": "{\n    \"Argentina\": \"Buenos Aires\",\n    \"Bolivia\": \"La Paz\",\n    \"Brazil\": \"Brasilia\",\n    \"Chile\": \"Santiago\",\n    \"Colombia\": \"Bogota\",\n    \"Ecuador\": \"Quito\",\n    \"French Guiana\": \"Cayenne\",\n    \"Guyana\": \"Georgetown\",\n    \"Paraguay\": \"Asuncion\",\n    \"Peru\": \"Lima\",\n    \"Suriname\": \"Paramaribo\",\n    \"Uruguay\": \"Montevideo\",\n    \"Venezuela\": \"Caracas\"\n}",
    "duration": 2.404407217982225,
    "result_length": 356,
    "avg_duration": 2.407876382500399
  },
  "vertex_code_bison": {
    "result": "{\n    \"Argentina\": \"Buenos Aires\",\n    \"Bolivia\": \"La Paz\",\n    \"Brazil\": \"Brasilia\",\n    \"Chile\": \"Santiago\",\n    \"Colombia\": \"Bogota\",\n    \"Ecuador\": \"Quito\",\n    \"French Guiana\": \"Cayenne\",\n    \"Guyana\": \"Georgetown\",\n    \"Paraguay\": \"Asuncion\",\n    \"Peru\": \"Lima\",\n    \"Suriname\": \"Paramaribo\",\n    \"Uruguay\": \"Montevideo\",\n    \"Venezuela\": \"Caracas\"\n}",
    "duration": 2.4008127439883538,
    "result_length": 356,
    "avg_duration": 2.4062299657030963
  },
  "vertex_text_bison": {
    "result": "capitals = {\n        \"United States\": \"Washington, D.C.\",\n        \"United Kingdom\": \"London\",\n        \"France\": \"Paris\",\n        \"Germany\": \"Berlin\",\n        \"Italy\": \"Rome\",\n        \"Spain\": \"Madrid\",\n        \"China\": \"Beijing\",\n        \"India\": \"New Delhi\",\n        \"Japan\": \"Tokyo\",\n    }",
    "duration": 2.077379608992487,
    "result_length": 291,
    "avg_duration": 1.573945613799151
  },
  "vertex_gecko": {
    "result": ""
  },
  "gitlab_model": {
    "result": "```python\ncapitals = {\n    \"Argentina\": \"Buenos Aires\",\n    \"Australia\": \"Canberra\",\n    \"Brazil\": \"",
    "duration": 0.6380555999930948,
    "result_length": 100,
    "avg_duration": 0.6194429594877875
  }
}