{
  "user_intention": "Live Test",
  "language": "python",
  "prompt": "# Write a program to remove duplicates from a list.",
  "anthropic": {
    "result": ""
  },
  "anthropic_fast": {
    "result": "def remove_duplicates(lst): \n    new_list = []\n    for i in lst:\n        if i not in new_list:\n            new_list.append(i)\n    return new_list",
    "duration": 0.8884416810178664,
    "result_length": 145,
    "avg_duration": 0.7612420207064133
  },
  "vertex_combined": {
    "result": "[1, 2, 3, 4, 5, 6, 7, 8, 9]",
    "duration": 3.900771013024496,
    "result_length": 27,
    "avg_duration": 3.763095134004834
  },
  "vertex_code_bison": {
    "result": "[1, 2, 3, 4, 5, 6, 7, 8, 9]",
    "duration": 3.7982909359852783,
    "result_length": 27,
    "avg_duration": 3.842214534594677
  },
  "vertex_text_bison": {
    "result": "def remove_duplicates(nums):\n        \"\"\"\n        Removes duplicates from a list.\n\n        Args:\n            nums: The list to remove duplicates from.\n\n        Returns:\n            The list with duplicates removed.\n        \"\"\"\n        # Create a set to store the unique elements.\n        unique_nums = set()\n\n        # Iterate over the list and add each element to the set.\n        for num in nums:\n            unique_nums.add(num)\n\n        # Convert the set to a list and return it.\n        return list(unique_nums)",
    "duration": 1.4997169060225133,
    "result_length": 515,
    "avg_duration": 1.6569991461059543
  },
  "vertex_gecko": {
    "result": ""
  },
  "gitlab_model": {
    "result": "```python\ndef remove_duplicates(nums):\r\n    seen = set()\r\n    new_nums = []",
    "duration": 0.675421996973455,
    "result_length": 75,
    "avg_duration": 0.6213689958938631
  }
}