{
  "user_intention": "Live Test",
  "language": "python",
  "prompt": "# Write a program to find the second smallest element in a list.",
  "anthropic": {
    "result": "# Write a program to find the second smallest element in a list.\nlist = [12, 13, 1, 10, 34, 1] \n  \nfirst_min = second_min = list[0] \nfor num in list: \n    if num < first_min: \n        second_min = first_min\n        first_min = num\n    elif num < second_min: \n        second_min = num\nprint(\"The second smallest element is\", second_min)",
    "duration": 3.9140058910124935,
    "result_length": 335,
    "avg_duration": 3.9952411141071935
  },
  "anthropic_fast": {
    "result": "def second_smallest(lst):\n    lst = sorted(lst)\n    return lst[1]",
    "duration": 0.6683809600071982,
    "result_length": 65,
    "avg_duration": 0.6963028811907861
  },
  "vertex_combined": {
    "result": "def find_second_smallest_element(list):\n  \"\"\"\n  This function finds the second smallest element in a list.\n\n  Args:\n    list: The list to be searched.\n\n  Returns:\n    The second smallest element in the list.\n  \"\"\"\n\n  # Sort the list in ascending order.\n  list.sort()\n\n  # The second smallest element is the second element in the sorted list.\n  return list[1]",
    "duration": 2.721870412991848,
    "result_length": 358,
    "avg_duration": 2.768367688107537
  },
  "vertex_code_bison": {
    "result": "def find_second_smallest_element(list):\n  \"\"\"\n  This function finds the second smallest element in a list.\n\n  Args:\n    list: The list to be searched.\n\n  Returns:\n    The second smallest element in the list.\n  \"\"\"\n\n  # Sort the list in ascending order.\n  list.sort()\n\n  # The second smallest element is the second element in the sorted list.\n  return list[1]",
    "duration": 2.756556600041222,
    "result_length": 358,
    "avg_duration": 2.801009909505956
  },
  "vertex_text_bison": {
    "result": "def find_second_smallest(nums):\n        nums.sort()\n        return nums[1]\n",
    "duration": 1.0912973930244334,
    "result_length": 75,
    "avg_duration": 1.0747146967914887
  },
  "vertex_gecko": {
    "result": ""
  },
  "gitlab_model": {
    "result": "```python\ndef find_second_smallest(nums):\r\n    smallest = min(nums)\r\n    second_",
    "duration": 0.6467131410026923,
    "result_length": 80,
    "avg_duration": 0.7072516921907663
  }
}