{
  "user_intention": "Live Test",
  "language": "python",
  "prompt": "# Create a class that represents a person with attributes like name, age, and address.",
  "anthropic": {
    "result": "class Person:\n    def __init__(self, name, age, address):\n        self.name = name\n        self.age = age\n        self.address = address",
    "duration": 1.336885627999436,
    "result_length": 136,
    "avg_duration": 1.577365655900212
  },
  "anthropic_fast": {
    "result": "# Create a class that represents a person with attributes like name, age, and address.\nclass Person:  \n    def __init__(self, name, age):  \n        self.name = name  \n        self.age = age",
    "duration": 0.7340428399911616,
    "result_length": 189,
    "avg_duration": 0.8001247541949852
  },
  "vertex_combined": {
    "result": "class Person:\n    def __init__(self, name, age, address):\n        self.name = name\n        self.age = age\n        self.address = address\n\n    def __str__(self):\n        return f\"Person {self.name}, age {self.age}, address {self.address}\"\n\n\n# Example usage\n\np1 = Person(\"John Doe\", 30, \"123 Main Street\")\nprint(p1)",
    "duration": 2.6930220639915206,
    "result_length": 313,
    "avg_duration": 2.9008788455947068
  },
  "vertex_code_bison": {
    "result": "class Person:\n    def __init__(self, name, age, address):\n        self.name = name\n        self.age = age\n        self.address = address\n\n    def __str__(self):\n        return f\"{self.name} is {self.age} years old and lives at {self.address}\"\n",
    "duration": 2.7630808659887407,
    "result_length": 243,
    "avg_duration": 2.971978591894731
  },
  "vertex_text_bison": {
    "result": "```python\nclass Person:\n\n    def __init__(self, name, age, address):\n        self.name = name\n        self.age = age\n        self.address = address\n\n    def __str__(self):\n        return f\"{self.name} is {self.age} years old and lives at {self.address}\"\n\n```",
    "duration": 0.8691973130044062,
    "result_length": 258,
    "avg_duration": 0.9156261812022422
  },
  "vertex_gecko": {
    "result": ""
  },
  "gitlab_model": {
    "result": "```python\nclass Person:\n\n    def __init__(self, name, age, address):\n        self.name = name\n        self.",
    "duration": 0.5703874440223444,
    "result_length": 107,
    "avg_duration": 0.6262366722046864
  }
}