{
  "user_intention": "Live Test",
  "language": "python",
  "prompt": "# Implement a function to find the largest element in a list.",
  "anthropic": {
    "result": "def largest(nums):\n    largest = nums[0]\n    for num in nums:\n        if num > largest:\n            largest = num\n    return largest",
    "duration": 1.7613348519953433,
    "result_length": 132,
    "avg_duration": 1.7167530166974756
  },
  "anthropic_fast": {
    "result": "def find_largest(list): \n    largest = list[0]  \n    for i in list:  \n        if i > largest:  \n            largest = i  \n    return largest",
    "duration": 0.9019756680063438,
    "result_length": 140,
    "avg_duration": 0.8876908032980282
  },
  "vertex_combined": {
    "result": "def find_largest_element(list):\n  \"\"\"\n  This function finds the largest element in a list.\n\n  Args:\n    list: The list to search.\n\n  Returns:\n    The largest element in the list.\n  \"\"\"\n\n  # Initialize the largest element to the first element in the list.\n  largest_element = list[0]\n\n  # Iterate over the rest of the elements in the list.\n  for element in list[1:]:\n    # If the current element is larger than the largest element, update the largest element.\n    if element > largest_element:\n      largest_element = element\n\n  # Return the largest element.\n  return largest_element",
    "duration": 3.473394789005397,
    "result_length": 582,
    "avg_duration": 3.632249868803774
  },
  "vertex_code_bison": {
    "result": "def find_largest_element(list):\n  \"\"\"\n  This function finds the largest element in a list.\n\n  Args:\n    list: The list to search.\n\n  Returns:\n    The largest element in the list.\n  \"\"\"\n\n  # Initialize the largest element to the first element in the list.\n  largest_element = list[0]\n\n  # Iterate over the rest of the elements in the list.\n  for element in list[1:]:\n    # If the current element is larger than the largest element, update the largest element.\n    if element > largest_element:\n      largest_element = element\n\n  # Return the largest element.\n  return largest_element",
    "duration": 3.4678389549953863,
    "result_length": 582,
    "avg_duration": 3.5796182551974196
  },
  "vertex_text_bison": {
    "result": "def find_largest(nums):\n        largest = nums[0]\n        for num in nums:\n            if num > largest:\n                largest = num\n        return largest",
    "duration": 0.6110706249892246,
    "result_length": 157,
    "avg_duration": 0.7248068405024242
  },
  "vertex_gecko": {
    "result": ""
  },
  "gitlab_model": {
    "result": "```python\ndef find_largest_element(list1):\n  largest = list1[0]\n  for i in range(1, len",
    "duration": 0.6143893859989475,
    "result_length": 87,
    "avg_duration": 0.6534870844043326
  }
}