{
  "user_intention": "Live Test",
  "language": "c",
  "prompt": "void count_elements(int numbers[], int numbers_count, int elements[], int elements_count, int counts[]) {",
  "anthropic": {
    "result": "    void count_elements(int numbers[], int numbers_count, int elements[], int elements_count, int counts[]) {\n        int i, j;\n        for (i = 0; i < elements_count; i++) {\n            counts[i] = 0;\n        }\n        for (i = 0; i < numbers_count; i++) {\n            for (j = 0; j < elements_count; j++) {\n                if (numbers[i] == elements[j]) {\n                    counts[j]++;\n                }\n            }\n        }\n    }",
    "duration": 2.9041542030172423,
    "result_length": 438,
    "avg_duration": 2.6745237337076104
  },
  "anthropic_fast": {
    "result": "void count_elements(int numbers[], int numbers_count, int elements[], int elements_count, int counts[]) {\n   int i, j;\n   for (i = 0; i < elements_count; i++) {\n      counts[i] = 0;\n      for (j = 0; j < numbers_count; j++) {\n         if (elements[i] == numbers[j]) {\n            counts[i]++;\n         }\n      }\n   }\n}",
    "duration": 1.1844618119648658,
    "result_length": 318,
    "avg_duration": 1.1423413886048366
  },
  "vertex_combined": {
    "result": ""
  },
  "vertex_code_bison": {
    "result": ""
  },
  "vertex_text_bison": {
    "result": "for (int i = 0; i < elements_count; i++) {\n        counts[i] = 0;\n    }\n    for (int i = 0; i < numbers_count; i++) {\n        for (int j = 0; j < elements_count; j++) {\n            if (numbers[i] == elements[j]) {\n                counts[j]++;\n            }\n        }\n    }\n}",
    "duration": 1.031687228998635,
    "result_length": 274,
    "avg_duration": 0.9704828645975795
  },
  "vertex_gecko": {
    "result": ""
  },
  "gitlab_model": {
    "result": "\n  for (int i = 0; i < elements_count; i++) {\n    counts[i] = 0;\n",
    "duration": 0.623283207998611,
    "result_length": 65,
    "avg_duration": 0.6512275351909921
  }
}