{
  "user_intention": "Live Test",
  "language": "c",
  "prompt": "int average(int numbers[], int count) {",
  "anthropic": {
    "result": "    int average(int numbers[], int count) {\n        int sum = 0;\n        for (int i = 0; i < count; i++) {\n            sum += numbers[i];\n        }\n        return sum / count;\n    }",
    "duration": 1.6951066249748692,
    "result_length": 181,
    "avg_duration": 1.5937926599988714
  },
  "anthropic_fast": {
    "result": "    int average(int numbers[], int count) {\n       int total = 0;\n       int i;\n       for (i = 0; i < count; i++) {\n          total += numbers[i];\n       }\n       return total / count;\n    }",
    "duration": 0.8758059000247158,
    "result_length": 191
  },
  "vertex_combined": {
    "result": "int average(int numbers[], int count) {\n  int sum = 0;\n  for (int i = 0; i < count; i++) {\n    sum += numbers[i];\n  }\n  return sum / count;\n}",
    "duration": 2.511874991992954,
    "result_length": 141,
    "avg_duration": 2.7674913767026736
  },
  "vertex_code_bison": {
    "result": "int average(int numbers[], int count) {\n  int sum = 0;\n  for (int i = 0; i < count; i++) {\n    sum += numbers[i];\n  }\n  return sum / count;\n}",
    "duration": 3.219997797976248,
    "result_length": 141,
    "avg_duration": 2.906532229395816
  },
  "vertex_text_bison": {
    "result": "int sum = 0;\n    for (int i = 0; i < count; i++) {\n        sum += numbers[i];\n    }\n    return sum / count;\n}",
    "duration": 0.6845321590080857,
    "result_length": 109,
    "avg_duration": 0.6692153119074646
  },
  "vertex_gecko": {
    "result": ""
  },
  "gitlab_model": {
    "result": "\n    int sum = 0;\n    for (int i = 0; i < count; i++) {\n        sum += numbers",
    "duration": 0.624125184956938,
    "result_length": 78,
    "avg_duration": 0.6598343621881213
  }
}