{
  "user_intention": "Live Test",
  "language": "c",
  "prompt": "long sum_numbers(int numbers[], int count) {",
  "anthropic": {
    "result": "    long sum_numbers(int numbers[], int count) {\n        long sum = 0;\n        for (int i = 0; i < count; i++) {\n            sum += numbers[i];\n        }\n        return sum;\n    }",
    "duration": 1.4122443500091322,
    "result_length": 179,
    "avg_duration": 1.5839528665004763
  },
  "anthropic_fast": {
    "result": "    long sum_numbers(int numbers[], int count) {\n       int i, sum = 0;\n       for (i = 0; i < count; i++) {\n           sum += numbers[i];\n       }\n       return sum;\n    }",
    "duration": 0.8736782319610938,
    "result_length": 172,
    "avg_duration": 0.8674046255880967
  },
  "vertex_combined": {
    "result": "long sum_numbers(int numbers[], int count) {\n  long sum = 0;\n  for (int i = 0; i < count; i++) {\n    sum += numbers[i];\n  }\n  return sum;\n}",
    "duration": 1.8736259029828943,
    "result_length": 139,
    "avg_duration": 1.7903938191011548
  },
  "vertex_code_bison": {
    "result": "long sum_numbers(int numbers[], int count) {\n  long sum = 0;\n  for (int i = 0; i < count; i++) {\n    sum += numbers[i];\n  }\n  return sum;\n}",
    "duration": 1.497891028993763,
    "result_length": 139,
    "avg_duration": 1.6934607052942738
  },
  "vertex_text_bison": {
    "result": "long sum = 0;\n     for (int i = 0; i < count; i++) {\n         sum += numbers[i];\n     }\n     return sum;\n }",
    "duration": 0.6320666340179741,
    "result_length": 107,
    "avg_duration": 0.6337267565948423
  },
  "vertex_gecko": {
    "result": ""
  },
  "gitlab_model": {
    "result": "\n    int sum = 0;\n    for (int i = 0; i < count; i++) {\n        sum += numbers",
    "duration": 0.6737571179983206,
    "result_length": 78,
    "avg_duration": 0.6483984253020025
  }
}