{
  "user_intention": "Live Test",
  "language": "python",
  "prompt": "def reverse_string(text):",
  "anthropic": {
    "result": ""
  },
  "anthropic_fast": {
    "result": "def reverse_string(text):\n   return text[::-1]",
    "duration": 0.4503419779939577,
    "result_length": 46,
    "avg_duration": 0.5727604215964675
  },
  "vertex_combined": {
    "result": "def reverse_string(text):\n  \"\"\"Reverses a string.\n\n  Args:\n    text: The string to reverse.\n\n  Returns:\n    The reversed string.\n  \"\"\"\n  # Initialize an empty string to store the reversed characters.\n  reversed_text = \"\"\n\n  # Iterate over the characters in the input string in reverse order.\n  for i in range(len(text) - 1, -1, -1):\n    # Append the current character to the reversed string.\n    reversed_text += text[i]\n\n  # Return the reversed string.\n  return reversed_text",
    "duration": 2.7162045770091936,
    "result_length": 476,
    "avg_duration": 2.704645993199665
  },
  "vertex_code_bison": {
    "result": "def reverse_string(text):\n  \"\"\"Reverses a string.\n\n  Args:\n    text: The string to reverse.\n\n  Returns:\n    The reversed string.\n  \"\"\"\n  # Initialize an empty string to store the reversed characters.\n  reversed_text = \"\"\n\n  # Iterate over the characters in the input string in reverse order.\n  for i in range(len(text) - 1, -1, -1):\n    # Append the current character to the reversed string.\n    reversed_text += text[i]\n\n  # Return the reversed string.\n  return reversed_text",
    "duration": 2.684762400051113,
    "result_length": 476,
    "avg_duration": 2.684328363504028
  },
  "vertex_text_bison": {
    "result": "```python\n    def reverse_string(text):\n        return text[::-1]\n    ```",
    "duration": 0.5898559100460261,
    "result_length": 73,
    "avg_duration": 0.597055738203926
  },
  "vertex_gecko": {
    "result": ""
  },
  "gitlab_model": {
    "result": "\n  return text[::-1]\n",
    "duration": 0.6387713740114123,
    "result_length": 21,
    "avg_duration": 0.629272918094648
  }
}