{
  "user_intention": "Live Test",
  "language": "python",
  "prompt": "def remove_duplicates(list):",
  "anthropic": {
    "result": "def remove_duplicates(list):\n    result = []\n    for elem in list:\n        if elem not in result:\n            result.append(elem)\n    return result",
    "duration": 1.486155978986062,
    "result_length": 147
  },
  "anthropic_fast": {
    "result": "def remove_duplicates(list):    \n    return list(set(list))",
    "duration": 0.6128974049934186,
    "result_length": 59,
    "avg_duration": 0.6302605038916227
  },
  "vertex_combined": {
    "result": "def remove_duplicates(list):\n  \"\"\"Removes all duplicate items from a list.\n\n  Args:\n    list: The list to remove duplicates from.\n\n  Returns:\n    A new list with all duplicate items removed.\n  \"\"\"\n\n  # Create a set of all the items in the list.\n  seen = set()\n\n  # Create a new list to store the unique items.\n  new_list = []\n\n  # Iterate over the original list.\n  for item in list:\n    # If the item is not already in the set, add it to the new list.\n    if item not in seen:\n      new_list.append(item)\n      seen.add(item)\n\n  # Return the new list.\n  return new_list",
    "duration": 3.1176788739976473,
    "result_length": 569,
    "avg_duration": 3.1616500743955838
  },
  "vertex_code_bison": {
    "result": "def remove_duplicates(list):\n  \"\"\"Removes all duplicate items from a list.\n\n  Args:\n    list: The list to remove duplicates from.\n\n  Returns:\n    A new list without any duplicate items.\n  \"\"\"\n\n  # Create a set of all the items in the list.\n  seen = set()\n\n  # Create a new list to store the unique items.\n  new_list = []\n\n  # Iterate over the original list.\n  for item in list:\n    # If the item is not already in the set, add it to the new list.\n    if item not in seen:\n      new_list.append(item)\n      seen.add(item)\n\n  # Return the new list.\n  return new_list",
    "duration": 3.347313904960174,
    "result_length": 564,
    "avg_duration": 3.2027289530902636
  },
  "vertex_text_bison": {
    "result": "new_list = []\n     for item in list:\n         if item not in new_list:\n             new_list.append(item)\n     return new_list",
    "duration": 0.6195035289856605,
    "result_length": 126,
    "avg_duration": 0.6023174270929303
  },
  "vertex_gecko": {
    "result": ""
  },
  "gitlab_model": {
    "result": "\n    # Create a set of the unique elements in the list.\n    unique_elements = set(list)\n\n  ",
    "duration": 0.755287354986649,
    "result_length": 91,
    "avg_duration": 0.6901898921118118
  }
}