{
  "user_intention": "Live Test",
  "language": "python",
  "prompt": "def is_even(number):",
  "anthropic": {
    "result": ""
  },
  "anthropic_fast": {
    "result": "def is_even(number):\n    if number % 2 == 0:\n        return True\n    else:\n        return False",
    "duration": 0.5458562889834866,
    "result_length": 95,
    "avg_duration": 0.5936465256963857
  },
  "vertex_combined": {
    "result": "def is_even(number):\n  \"\"\"\n  This function takes an integer as input and returns a boolean value.\n\n  Args:\n    number: The integer to be checked for evenness.\n\n  Returns:\n    A boolean value indicating whether the input integer is even.\n  \"\"\"\n\n  # Check if the input integer is divisible by 2.\n\n  if number % 2 == 0:\n    return True\n  else:\n    return False",
    "duration": 3.808473427023273,
    "result_length": 357
  },
  "vertex_code_bison": {
    "result": ""
  },
  "vertex_text_bison": {
    "result": "if number % 2 == 0:\n         return True\n     else:\n         return False",
    "duration": 0.5024367399746552,
    "result_length": 73,
    "avg_duration": 0.5080643535009586
  },
  "vertex_gecko": {
    "result": ""
  },
  "gitlab_model": {
    "result": "\n  \"\"\"Returns True if the given number is even, False otherwise.\"\"\"\n\n  # Check if the number is divisible by 2.\n\n ",
    "duration": 0.6366258299676701,
    "result_length": 114,
    "avg_duration": 0.6698038830072619
  }
}