{
  "anthropic": {
    "result": "def reverse_string(text):\n    return text[::-1]",
    "duration": 0.9391177960205823,
    "result_length": 47,
    "average_duration": 0.9531628569820896,
    "raw_durations": [
      0.9391177960205823,
      1.0445094680180773,
      0.9028429909376428,
      0.8739838759647682,
      1.0053601539693773
    ],
    "uuid": "0ed4d7e4-b3a6-47f3-8bd8-09b5fa5376de"
  },
  "anthropic_fast": {
    "result": "# def reverse_string(text):  \ndef reverse_string(text):\n    return text[::-1]",
    "duration": 0.6017034250544384,
    "result_length": 77,
    "average_duration": 0.5983776981942356,
    "raw_durations": [
      0.6017034250544384,
      0.6017805020092055,
      0.5889288550242782,
      0.6326538439607248,
      0.5643682569498196,
      0.6117332929279655,
      0.5724817630834877,
      0.5796082370216027,
      0.6694289229344577,
      0.5610898829763755
    ],
    "uuid": "fa86b847-200f-44d2-9108-a9cacb3fdf8f"
  },
  "vertex_combined": {
    "result": "def reverse_string(text):\n  new_text = \"\"\n  for i in range(len(text) - 1, -1, -1):\n    new_text += text[i]\n  return new_text",
    "duration": 1.3787640510126948,
    "result_length": 124,
    "average_duration": 1.5156691882875748,
    "raw_durations": [
      1.3787640510126948,
      1.5600109659135342,
      1.4490837990306318,
      1.661424069898203,
      1.5360597900580615,
      1.458024755003862,
      1.34200422198046,
      1.815981969004497,
      1.5276959029724821,
      1.4276423580013216
    ],
    "uuid": "1ae66f6c-26dd-4f98-a842-c5c73b0f3718"
  },
  "vertex_code_bison": {
    "result": "def reverse_string(text):\n  new_text = \"\"\n  for i in range(len(text) - 1, -1, -1):\n    new_text += text[i]\n  return new_text",
    "duration": 1.4524098000256345,
    "result_length": 124,
    "average_duration": 1.4528279401129112,
    "raw_durations": [
      1.4524098000256345,
      1.680165927973576,
      1.4178345199907199,
      1.5146403150865808,
      1.4380758400075138,
      1.3479143470758572,
      1.4441702699987218,
      1.4855177400168031,
      1.3868168329354376,
      1.3607338080182672
    ],
    "uuid": "b0cc0a9d-1214-4a15-a4bb-5bdab6ea182a"
  },
  "vertex_text_bison": {
    "result": "```python\ndef reverse_string(text):\r\n  return text[::-1]\n```",
    "duration": 1.0113832540810108,
    "result_length": 60,
    "average_duration": 1.0210794461076147,
    "raw_durations": [
      1.0113832540810108,
      0.933849022956565,
      1.041742414003238,
      1.019365011015907,
      1.0417547579854727,
      1.0058501278981566,
      1.1165742489974946,
      0.9944583110045642,
      1.1173715030308813,
      0.9284458101028576
    ],
    "uuid": "c0a23aa2-075e-437f-bab8-61e8f32c2e31"
  },
  "vertex_gecko": {
    "result": "\n#     return text[::-1]\n\n# print(reverse_string(\"hello\"))",
    "duration": 1.457620707922615,
    "result_length": 58,
    "average_duration": 1.476445291680284,
    "raw_durations": [
      1.457620707922615,
      1.5676770000718534,
      1.4383392499294132,
      1.475895082927309,
      1.448220666963607,
      1.5246358329895884,
      1.412958416971378,
      1.469272124930285,
      1.4787531250622123,
      1.491080709034577
    ],
    "uuid": "4b57b481-d61a-41c1-ab0d-f1ac2ebc95ad"
  },
  "user_intention": "Live Test",
  "language": "python",
  "prompt": "def reverse_string(text):",
  "gitlab_model": {
    "result": "\n  return text[::-1]\n",
    "duration": 0.6387713740114123,
    "result_length": 21,
    "average_duration": 0.629272918094648,
    "uuid": "667c96ec-dcad-4be2-bcce-86f810f67ba0"
  }
}